{ "backgroundcolor":"#d3eeff",
 "height":25,
 "layers":[
        {
         "data":[0, 0, 0, 0, 0, 0, 0, 0, 0, 0, 0, 0, 0, 0, 0, 0, 0, 0, 0, 0, 0, 0, 0, 0, 0, 0, 0, 0, 0, 0, 0, 0, 0, 0, 0, 0, 0, 0, 0, 0, 0, 0, 0, 0, 0, 0, 0, 0, 0, 0, 0, 0, 0, 0, 0, 0, 0, 0, 0, 0, 0, 0, 0, 0, 0, 0, 0, 0, 0, 0, 0, 0, 0, 0, 0, 0, 0, 0, 0, 0, 0, 0, 0, 0, 0, 0, 0, 0, 0, 0, 0, 0, 0, 0, 0, 0, 0, 0, 0, 0, 0, 0, 0, 0, 0, 0, 0, 0, 0, 0, 0, 0, 0, 0, 0, 0, 0, 0, 0, 0, 0, 0, 0, 0, 0, 0, 0, 0, 0, 0, 0, 0, 0, 0, 0, 0, 0, 0, 0, 0, 0, 0, 0, 0, 0, 0, 0, 0, 0, 0, 0, 0, 0, 0, 0, 0, 0, 0, 0, 0, 0, 0, 0, 0, 0, 0, 0, 0, 0, 0, 0, 0, 0, 0, 0, 0, 0, 0, 0, 0, 0, 0, 0, 0, 0, 0, 0, 0, 0, 0, 0, 0, 0, 0, 0, 0, 0, 0, 0, 0, 0, 0, 0, 0, 0, 0, 0, 0, 0, 0, 0, 0, 0, 0, 0, 0, 0, 0, 0, 0, 0, 0, 0, 0, 0, 0, 0, 0, 0, 0, 0, 0, 0, 0, 0, 0, 0, 0, 0, 0, 0, 0, 0, 0, 0, 0, 0, 0, 0, 0, 0, 0, 0, 0, 0, 0, 0, 0, 0, 0, 0, 0, 0, 0, 0, 0, 0, 0, 0, 0, 0, 0, 0, 0, 0, 0, 0, 0, 0, 0, 0, 0, 0, 0, 0, 0, 0, 0, 0, 0, 0, 0, 0, 0, 0, 0, 0, 0, 0, 0, 0, 0, 0, 0, 0, 0, 0, 0, 0, 0, 0, 0, 0, 0, 0, 0, 0, 0, 0, 0, 0, 0, 0, 0, 0, 0, 0, 0, 0, 0, 0, 0, 0, 0, 0, 0, 0, 0, 0, 0, 0, 0, 0, 0, 0, 0, 0, 0, 0, 0, 0, 0, 0, 0, 0, 0, 0, 0, 0, 0, 0, 0, 0, 0, 0, 0, 0, 0, 0, 0, 0, 0, 0, 0, 0, 0, 0, 0, 0, 0, 0, 0, 0, 0, 0, 0, 0, 0, 0, 0, 0, 0, 0, 0, 0, 0, 0, 0, 0, 0, 0, 0, 0, 0, 0, 0, 0, 0, 0, 0, 0, 0, 0, 0, 0, 0, 0, 0, 0, 0, 0, 0, 0, 0, 0, 0, 0, 0, 0, 0, 0, 0, 0, 0, 0, 0, 0, 0, 0, 0, 0, 0, 0, 0, 0, 0, 0, 0, 0, 0, 0, 0, 0, 0, 0, 0, 0, 0, 0, 0, 0, 0, 0, 0, 0, 0, 0, 0, 0, 0, 0, 0, 0, 0, 0, 0, 0, 0, 0, 0, 0, 0, 0, 0, 0, 0, 0, 0, 0, 0, 0, 0, 0, 0, 0, 0, 0, 0, 0, 0, 0, 0, 0, 0, 0, 0, 0, 0, 0, 0, 0, 0, 0, 0, 0, 0, 0, 0, 0, 0, 0, 0, 0, 0, 0, 0, 0, 0, 0, 0, 0, 0, 0, 0, 0, 0, 0, 0, 0, 0, 0, 0, 0, 0, 0, 0, 0, 0, 0, 0, 0, 0, 0, 0, 0, 0, 0, 0, 0, 0, 0, 0, 0, 0, 0, 0, 0, 0, 0, 0, 0, 0, 0, 0, 0, 0, 0, 0, 0, 0, 0, 0, 0, 0, 0, 0, 0, 0, 0, 0, 0, 0, 0, 0, 0, 0, 0, 0, 0, 0, 6221, 6221, 6221, 6221, 6221, 6221, 6221, 6221, 6221, 6221, 6221, 6221, 6221, 6221, 6221, 6221, 6221, 6221, 6221, 6221, 6221, 6221, 6221, 6221, 6221, 6221, 6221, 6221, 6221, 6221, 6221, 6221, 6221, 6221, 6221, 6221, 6221, 6221, 6221, 6221, 6221, 6221, 6221, 6221, 6221, 6221, 6221, 6221, 6221, 6221, 6221, 6221, 6221, 6221, 6221, 6221, 6221, 6221, 6221, 6221, 6221, 6221, 6221, 6221, 6221, 6221, 6221, 6221, 6221, 6221, 6221, 6221, 6221, 6221, 6221, 6221, 6221, 6221, 6221, 6221, 6221, 6221, 6221, 6221, 6221, 6221, 6221, 6221, 6221, 6221, 6221, 6221, 6221, 6221, 6221, 6221, 6221, 6221, 6221, 6221, 6221, 6221, 6221, 6221, 6221, 6221, 6221, 6221, 6221, 6221, 6221, 6221, 6221, 6221, 6221, 6221, 6221, 6221, 6221, 6221, 6221, 6221, 6221, 6221, 6221, 6221, 6221, 6221, 6221, 6221, 6221, 6221, 6221, 6221, 6221, 6221, 6221, 6221, 6221, 6221, 6221, 6221, 6221, 6221, 6221, 6221, 6221, 6221, 6221, 6221, 6221, 6221, 6221, 6221, 6221, 6221, 6221, 6221, 6221, 6221, 6221, 6221, 6221, 6221, 6221, 6221, 6221, 6221, 6221, 6221, 6221, 6221, 6221, 6221, 6221, 6221, 6221, 6221, 6221, 6221, 6221, 6221, 6221, 6221, 6221, 6221, 6221, 6221, 6221, 6221, 6221, 6221, 6221, 6221, 6221, 6221, 6221, 6221, 6221, 6221, 6232, 6232, 6232, 6232, 6232, 6232, 6232, 6232, 6232, 6232, 6232, 6232, 6232, 6232, 6232, 6232, 6232, 6232, 6232, 6232, 6232, 6232, 6232, 6232, 6232, 6232, 6232, 6232, 6232, 6232, 6232, 6232, 6232, 6232, 6232, 6232, 6232, 6232, 6232, 6232, 6232, 6232, 6232, 6232, 6232, 6232, 6232, 6232, 6232, 6232, 6232, 6232, 6232, 6232, 6232, 6232, 6232, 6232, 6232, 6232, 6232, 6232, 6232, 6232, 6232, 6232, 6232, 6232, 6232, 6232, 6232, 6232, 6232, 6232, 6232, 6232, 6232, 6232, 6232, 6232, 6232, 6232, 6232, 6232, 6232, 6232, 6232, 6232, 6232, 6232, 6232, 6232, 6232, 6232, 6232, 6232, 6232, 6232, 6232, 6232, 6232, 6232, 6232, 6232, 6232, 6232, 6232, 6232, 6232, 6232, 6232, 6232, 6232, 6232, 6232, 6232, 6232, 6232, 6232, 6232, 6232, 6232, 6232, 6232, 6232, 6232, 6232, 6232, 6232, 6232, 6232, 6232, 6232, 6232, 6232, 6232, 6232, 6232, 6232, 6232, 6232, 6232, 6232, 6232, 6232, 6232, 6232, 6232, 6232, 6232, 6232, 6232, 6232, 6232, 6232, 6232, 6232, 6232, 6232, 6232, 6232, 6232, 6232, 6232, 6232, 6232, 6232, 6232, 6232, 6232, 6232, 6232, 6232, 6232, 6232, 6232, 6232, 6232, 6232, 6232, 6232, 6232, 6232, 6232, 6232, 6232, 6232, 6232, 6232, 6232, 6232, 6232, 6232, 6232, 6232, 6232, 6232, 6232, 6232, 6232, 6232, 6232, 6232, 6232, 6232, 6232, 6232, 6232, 6232, 6232, 6232, 6232, 6232, 6232, 6232, 6232, 6232, 6232, 6232, 6232, 6232, 6232, 6232, 6232, 6232, 6232, 6232, 6232, 6232, 6232, 6232, 6232, 6232, 6232, 6232, 6232, 6232, 6232, 6232, 6232, 6232, 6232, 6232, 6232, 6232, 6232, 6232, 6232, 6232, 6232, 6232, 6232, 6232, 6232, 6232, 6232, 6232, 6232, 6232, 6232, 6232, 6232, 6232, 6232, 6232, 6232, 6232, 6232, 6232, 6232, 6232, 6232, 6232, 6232, 6232, 6232, 6232, 6232, 6232, 6232, 6232, 6232, 6232, 6232, 6232, 6232, 6232, 6232, 6232, 6232, 6232, 6232, 6232, 6232, 6232, 6232, 6232, 6232, 6232, 6232, 6232, 6232, 6232, 6232, 6232, 6232, 6232, 6232, 6232, 6232, 6232, 6232, 6232, 6232, 6232, 6232, 6232, 6232, 6232, 6232, 6232, 6232, 6232, 6232, 6232, 6232, 6232, 6232, 6232, 6232, 6232, 6232, 6232, 6232, 6232, 6232, 6232, 6232, 6232, 6232, 6232, 6232, 6232, 6232, 6232, 6232, 6232, 6232, 6232, 6232, 6232, 6232, 6232, 6232, 6232, 6232, 6232, 6232, 6232, 6232, 6232, 6232, 6232, 6232, 6232, 6232, 6232, 6232, 6232, 6232, 6232, 6232, 6232, 6232, 6232, 6232, 6232, 6232, 6232, 6232, 6232, 6232, 6232, 6232, 6232, 6232, 6232, 6232, 6232, 6232, 6232, 6232, 6232, 6232, 6232, 6232, 6232, 6232, 6232, 6232, 6232, 6232, 6232, 6232, 6232, 6232, 6232, 6232, 6232, 6232, 6232, 6232, 6232, 6232, 6232, 6232, 6232, 6232, 6232, 6232, 6232, 6232, 6232, 6232, 6232, 6232, 6232, 6232, 6232, 6232, 6232, 6232, 6232, 6232, 6232, 6232, 6232, 6232, 6232, 6232, 6232, 6232, 6232, 6232, 6232, 6232, 6232, 6232, 6232, 6232, 6232, 6232, 6232, 6232, 6232, 6232, 6232, 6232, 6232, 6232, 6232, 6232, 6232, 6232, 6232, 6232, 6232, 6232, 6232, 6232, 6232, 6232, 6232, 6232, 6232, 6232, 6232, 6232, 6232, 6232, 6232, 6232, 6232, 6232, 6232, 6232, 6232, 6232, 6232, 6232, 6232, 6232, 6232, 6232, 6232, 6232, 6232, 6232, 6232, 6232, 6232, 6232, 6232, 6232, 6232, 6232, 6232, 6232, 6232, 6232, 6232, 6232, 6232, 6232, 6232, 6232, 6232, 6232, 6232, 6232, 6232, 6232, 6232, 6232, 6232, 6232, 6232, 6232, 6232, 6232, 6232, 6232, 6232, 6232, 6232, 6232, 6232, 6232, 6232, 6232, 6232, 6232, 6232, 6232, 6232, 6232, 6232, 6232, 6232, 6232, 6232, 6232, 6232, 6232, 6232, 6232, 6232, 6232, 6232, 6232, 6232, 6232, 6232, 6232, 6232, 6232, 6232, 6232, 6232, 6232, 6232, 6232, 6232, 6232, 6232, 6232, 6232, 6232, 6232, 6232, 6232, 6232, 6232, 6232, 6232, 6232, 6232, 6232, 6232, 6232, 6232, 6232, 6232, 6232, 6232, 6232, 6232, 6232, 6232, 6232, 6232, 6232, 6232, 6232, 6232, 6232, 6232, 6232, 6232, 6232, 6232, 6232, 6232, 6232, 6232, 6232, 6232, 6232, 6232, 6232, 6232, 6232, 6232, 6232, 6232, 6232, 6232, 6232, 6232, 6232, 6232, 6232, 6232, 6232, 6232, 6232, 6232, 6232, 6232, 6232, 6232, 6232, 6232, 6232, 6232, 6232, 6232, 6232, 6232, 6232, 6232, 6232, 6232, 6232, 6232, 6232, 6232, 6232, 6232, 6232, 6232, 6232, 6232, 6232, 6232, 6232, 6232, 6232, 6232, 6232, 6232, 6232, 6232, 6232, 6232, 6232, 6232, 6232, 6232, 6232, 6232, 6232, 6232, 6232, 6232, 6232, 6232, 6232, 6232, 6232, 6232, 6232, 6232, 6232, 6232, 6232, 6232, 6232, 6232, 6232, 6232, 6232, 6232, 6232, 6232, 6232, 6232, 6232, 6232, 6232, 6232, 6232, 6232, 6232, 6232, 6232, 6232, 6232, 6232, 6232, 6232, 6232, 6232, 6232, 6232, 6232, 6232, 6232, 6232, 6232, 6232, 6232, 6232, 6232, 6232, 6232, 6232, 6232, 6232, 6232, 6232, 6232, 6232, 6232, 6232, 6232, 6232, 6232, 6232, 6232, 6232, 6232, 6232, 6232, 6232, 6232, 6232, 6232, 6232, 6232, 6232, 6232, 6232, 6232, 6232, 6232, 6232, 6232, 6232, 6232, 6232, 6232, 6232, 6232, 6232, 6232, 6232, 6232, 6232, 6232, 6232, 6232, 6232, 6232, 6232, 6232, 6232, 6232, 6232, 6232, 6232, 6232, 6232, 6232, 6232, 6232, 6232, 6232, 6232, 6232, 6232, 6232, 6232, 6232, 6232, 6232, 6232, 6232, 6232, 6232, 6232, 6232, 6232, 6232, 6232, 6232, 6232, 6232, 6232, 6232, 6232, 6232, 6232, 6232, 6232, 6232, 6232, 6232, 6232, 6232, 6232, 6232, 6232, 6232, 6232, 6232, 6232, 6232, 6232, 6232, 6232, 6232, 6232, 6232, 6232, 6232, 6232, 6232, 6232, 6232, 6232, 6232, 6232, 6232, 6232, 6232, 6232, 6232, 6232, 6232, 6232, 6232, 6232, 6232, 6232, 6232, 6232, 6232, 6232, 6232, 6232, 6232, 6232, 6232, 6232, 6232, 6232, 6232, 6232, 6232, 6232, 6232, 6232, 6232, 6232, 6232, 6232, 6232, 6232, 6232, 6232, 6232, 6232, 6232, 6232, 6232, 6232, 6232, 6232, 6232, 6232, 6232, 6232, 6232, 6232, 6232, 6232, 6232, 6232, 6232, 6232, 6232, 6232, 6232, 6232, 6232, 6232, 6232, 6232, 6232, 6232, 6232, 6232, 6232, 6232, 6232, 6232, 6232, 6232, 6232, 6232, 6232, 6232, 6232, 6232, 6232, 6232, 6232, 6232, 6232, 6232, 6232, 6232, 6232, 6232, 6232, 6232, 6232, 6232, 6232, 6232, 6232, 6232, 6232, 6232, 6232, 6232, 6232, 6232, 6232, 6232, 6232, 6232, 6232, 6232, 6232, 6232, 6232, 6232, 6232, 6232, 6232, 6232, 6232, 6232, 6232, 6232, 6232, 6232, 6232, 6232, 6232, 6232, 6232, 6232, 6232, 6232, 6232, 6232, 6232, 6232, 6232, 6232, 6232, 6232, 6232, 6232, 6232, 6232, 6232, 6232, 6232, 6232, 6232, 6232, 6232, 6232, 6232, 6232, 6232, 6232, 6232, 6232, 6232, 6232, 6232, 6232, 6232, 6232, 6232, 6232, 6232, 6232, 6232, 6232, 6232, 6232, 6232, 6232, 6232, 6232, 6232, 6232, 6232, 6232, 6232, 6232, 6232, 6232, 6232, 6232, 6232, 6232, 6232, 6232, 6232, 6232, 6232, 6232, 6232, 6232, 6232, 6232, 6232, 6232, 6232, 6232, 6232, 6232, 6232, 6232, 6232, 6232, 6232, 6232, 6232, 6232, 6232, 6232, 6232, 6232, 6232, 6232, 6232, 6232, 6232, 6232, 6232, 6232, 6232, 6232, 6232, 6232, 6232, 6232, 6232, 6232, 6232, 6232, 6232, 6232, 6232, 6232, 6232, 6232, 6232, 6232, 6232, 6232, 6232, 6232, 6232, 6232, 6232, 6232, 6232, 6232, 6232, 6232, 6232, 6232, 6232, 6232, 6232, 6232, 6232, 6232, 6232, 6232, 6232, 6232, 6232, 6232, 6232, 6232, 6232, 6232, 6232, 6232, 6232, 6232, 6232, 6232, 6232, 6232, 6232, 6232, 6232, 6232, 6232, 6232, 6232, 6232, 6232, 6232, 6232, 6232, 6232, 6232, 6232, 6232, 6232, 6232, 6232, 6232, 6232, 6232, 6232, 6232, 6232, 6232, 6232, 6232, 6232, 6232, 6232, 6232, 6232, 6232, 6232, 6232, 6232, 6232, 6232, 6232, 6232, 6232, 6232, 6232, 6232, 6232, 6232, 6232, 6232, 6232, 6232, 6232, 6232, 6232, 6232, 6232, 6232, 6232, 6232, 6232, 6232, 6232, 6232, 6232, 6232, 6232, 6232, 6232, 6232, 6232, 6232, 6232, 6232, 6232, 6232, 6232, 6232, 6232, 6232, 6232, 6232, 6232, 6232, 6232, 6232, 6232, 6232, 6232, 6232, 6232, 6232, 6232, 6232, 6232, 6232, 6232, 6232, 6232, 6232, 6232, 6232, 6232, 6232, 6232, 6232, 6232, 6232, 6232, 6232, 6232, 6232, 6232, 6232, 6232, 6232, 6232, 6232, 6232, 6232, 6232, 6232, 6232, 6232, 6232, 6232, 6232, 6232, 6232, 6232, 6232, 6232, 6232, 6232, 6232, 6232, 6232, 6232, 6232, 6232, 6232, 6232, 6232, 6232, 6232, 6232, 6232, 6232, 6232, 6232, 6232, 6232, 6232, 6232, 6232, 6232, 6232, 6232, 6232, 6232, 6232, 6232, 6232, 6232, 6232, 6232, 6232, 6232, 6232, 6232, 6232, 6232, 6232, 6232, 6232, 6232, 6232, 6232, 6232, 6232, 6232, 6232, 6232, 6232, 6232, 6232, 6232, 6232, 6232, 6232, 6232, 6232, 6232, 6232, 6232, 6232, 6232, 6232, 6232, 6232, 6232, 6232, 6232, 6232, 6232, 6232, 6232, 6232, 6232, 6232, 6232, 6232, 6232, 6232, 6232, 6232, 6232, 6232, 6232, 6232, 6232, 6232, 6232, 6232, 6232, 6232, 6232, 6232, 6232, 6232, 6232, 6232, 6232, 6232, 6232, 6232, 6232, 6232, 6232, 6232, 6232, 6232, 6232, 6232, 6232, 6232, 6232, 6232, 6232, 6232, 6232, 6232, 6232, 6232, 6232, 6232, 6232, 6232, 6232, 6232, 6232, 6232, 6232, 6232, 6232, 6232, 6232, 6232, 6232, 6232, 6232, 6232, 6232, 6232, 6232, 6232, 6232, 6232, 6232, 6232, 6232, 6232, 6232, 6232, 6232, 6232, 6232, 6232, 6232, 6232, 6232, 6232, 6232, 6232, 6232, 6232, 6232, 6232, 6232, 6232, 6232, 6232, 6232, 6232, 6232, 6232, 6232, 6232, 6232, 6232, 6232, 6232, 6232, 6232, 6232, 6232, 6232, 6232, 6232, 6232, 6232, 6232, 6232, 6232, 6232, 6232, 6232, 6232, 6232, 6232, 6232, 6232, 6232, 6232, 6232, 6232, 6232, 6232, 6232, 6232, 6232, 6232, 6232, 6232, 6232, 6232, 6232, 6232, 6232, 6232, 6232, 6232, 6232, 6232, 6232, 6232, 6232, 6232, 6232, 6232, 6232, 6232, 6232, 6232, 6232, 6232, 6232, 6232, 6232, 6232, 6232, 6232, 6232, 6232, 6232, 6232, 6232, 6232, 6232, 6232, 6232, 6232, 6232, 6232, 6232, 6232, 6232, 6232, 6232, 6232, 6232, 6232, 6232, 6232, 6232, 6232, 6232, 6232, 6232, 6232, 6232, 6232, 6232, 6232, 6232, 6232, 6232, 6232, 6232, 6232, 6232, 6232, 6232, 6232, 6232, 6232, 6232, 6232, 6232, 6232, 6232, 6232, 6232, 6232, 6232, 6232, 6232, 6232, 6232, 6232, 6232, 6232, 6232, 6232, 6232, 6232, 6232, 6232, 6232, 6232, 6232, 6232, 6232, 6232, 6232, 6232, 6232, 6232, 6232, 6232, 6232, 6232, 6232, 6232, 6232, 6232, 6232, 6232, 6232, 6232, 6232, 6232, 6232, 6232, 6232, 6232, 6232, 6232, 6232, 6232, 6232, 6232, 6232, 6232, 6232, 6232, 6232, 6232, 6232, 6232, 6232, 6232, 6232, 6232, 6232, 6232, 6232, 6232, 6232, 6232, 6232, 6232, 6232, 6232, 6232, 6232, 6232, 6232, 6232, 6232, 6232, 6232, 6232, 6232, 6232, 6232, 6232, 6232, 6232, 6232, 6232, 6232, 6232, 6232, 6232, 6232, 6232, 6232, 6232, 6232, 6232, 6232, 6232, 6232, 6232, 6232, 6232, 6232, 6232, 6232, 6232, 6232, 6232, 6232, 6232, 6232, 6232, 6232, 6232, 6232, 6232, 6232, 6232, 6232, 6232, 6232, 6232, 6232, 6232, 6232, 6232, 6232, 6232, 6232, 6232, 6232, 6232, 6232, 6232, 6232, 6232, 6232, 6232, 6232, 6232, 6232, 6232, 6232, 6232, 6232, 6232, 6232, 6232, 6232, 6232, 6232, 6232, 6232, 6232, 6232, 6232, 6232, 6232, 6232, 6232, 6232, 6232, 6232, 6232, 6232, 6232, 6232, 6232, 6232, 6232, 6232, 6232, 6232, 6232, 6232, 6232, 6232, 6232, 6232, 6232, 6232, 6232, 6232, 6232, 6232, 6232, 6232, 6232, 6232, 6232, 6232, 6232, 6232, 6232, 6232, 6232, 6232, 6232, 6232, 6232, 6232, 6232, 6232, 6232, 6232, 6232, 6232, 6232, 6232, 6232, 6232, 6232, 6232, 6232, 6232, 6232, 6232, 6232, 6232, 6232, 6232, 6232, 6232, 6232, 6232, 6232, 6232, 6232, 6232, 6232, 6232, 6232, 6232, 6232, 6232, 6232, 6232, 6232, 6232, 6232, 6232, 6232, 6232, 6232, 6232, 6232, 6232, 6232, 6232, 6232, 6232, 6232, 6232, 6232, 6232, 6232, 6232, 6232, 6232, 6232, 6232, 6232, 6232, 6232, 6232, 6232, 6232, 6232, 6232, 6232, 6232, 6232, 6232, 6232, 6232, 6232, 6232, 6232, 6232, 6232, 6232, 6232, 6232, 6232, 6232, 6232, 6232, 6232, 6232, 6232, 6232, 6232, 6232, 6232, 6232, 6232, 6232, 6232, 6232, 6232, 6232, 6232, 6232, 6232, 6232, 6232, 6232, 6232, 6232, 6232, 6232, 6232, 6232, 6232, 6232, 6232, 6232, 6232, 6232, 6232, 6232, 6232, 6232, 6232, 6232, 6232, 6232, 6232, 6232, 6232, 6232, 6232, 6232, 6232, 6232, 6232, 6232, 6232, 6232, 6232, 6232, 6232, 6232, 6232, 6232, 6232, 6232, 6232, 6232, 6232, 6232, 6232, 6232, 6232, 6232, 6232, 6232, 6232, 6232, 6232, 6232, 6232, 6232, 6232, 6232, 6232, 6232, 6232, 6232, 6232, 6232, 6232, 6232, 6232, 6232, 6232, 6232, 6232, 6232, 6232, 6232, 6232, 6232, 6232, 6232, 6232, 6232, 6232, 6232, 6232, 6232, 6232, 6232, 6232, 6232, 6232, 6232, 6232, 6232, 6232, 6232, 6232, 6232, 6232, 6232, 6232, 6232, 6232, 6232, 6232, 6232, 6232, 6232, 6232, 6232, 6232, 6232, 6232, 6232, 6232, 6232, 6232, 6232, 6232, 6232, 6232, 6232, 6232, 6232, 6232, 6232, 6232, 6232, 6232, 6232, 6232, 6232, 6232, 6232, 6232, 6232, 6232, 6232, 6232, 6232, 6232, 6232, 6232, 6232, 6232, 6232, 6232, 6232, 6232, 6232, 6232, 6232, 6232, 6232, 6232, 6232, 6232, 6232, 6232, 6232, 6232, 6232, 6232, 6232, 6232, 6232, 6232, 6232, 6232, 6232, 6232, 6232, 6232, 6232, 6232, 6232, 6232, 6232, 6232, 6232, 6232, 6232, 6232, 6232, 6232, 6232, 6232, 6232, 6232, 6232, 6232, 6232, 6232, 6232, 6232, 6232, 6232, 6232, 6232, 6232, 6232, 6232, 6232, 6232, 6232, 6232, 6232, 6232, 6232, 6232, 6232, 6232, 6232, 6232, 6232, 6232, 6232, 6232, 6232, 6232, 6232, 6232, 6232, 6232, 6232, 6232, 6232, 6232, 6232, 6232, 6232, 6232, 6232, 6232, 6232, 6232, 6232, 6232, 6232, 6232, 6232, 6232, 6232, 6232, 6232, 6232, 6232, 6232, 6232, 6232, 6232, 6232, 6232, 6232, 6232, 6232, 6232, 6232, 6232, 6232, 6232, 6232, 6232, 6232, 6232, 6232, 6232, 6232, 6232, 6232, 6232, 6232, 6232, 6232, 6232, 6232, 6232, 6232, 6232, 6232, 6232, 6232, 6232, 6232, 6232, 6232, 6232, 6232, 6232, 6232, 6232, 6232, 6232, 6232, 6232, 6232, 6232, 6232, 6232, 6232, 6232, 6232, 6232, 6232, 6232, 6232, 6232, 6232, 6232, 6232, 6232, 6232, 6232, 6232, 6232, 6232, 6232, 6232, 6232, 6232, 6232, 6232, 6232, 6232, 6232, 6232, 6232, 6232, 6232, 6232, 6232, 6232, 6232, 6232, 6232, 6232, 6232, 6232, 6232, 6232, 6232, 6232, 6232, 6232, 6232, 6232, 6232, 6232, 6232, 6232, 6232, 6232, 6232, 6232, 6232, 6232, 6232, 6232, 6232, 6232, 6232, 6232, 6232, 6232, 6232, 6232, 6232, 6232, 6232, 6232, 6232, 6232, 6232, 6232, 6232, 6232, 6232, 6232, 6232, 6232, 6232, 6232, 6232, 6232, 6232, 6232, 6232, 6232, 6232, 6232, 6232, 6232, 6232, 6232, 6232, 6232, 6232, 6232, 6232, 6232, 6232, 6232, 6232, 6232, 6232, 6232, 6232, 6232, 6232, 6232, 6232, 6232, 6232, 6232, 6232, 6232, 6232, 6232, 6232, 6232, 6232, 6232, 6232, 6232, 6232, 6232, 6232, 6232, 6232, 6232, 6232, 6232, 6232, 6232, 6232, 6232, 6232, 6232, 6232, 6232, 6232, 6232, 6232, 6232, 6232, 6232, 6232, 6232, 6232, 6232, 6232, 6232, 6232, 6232, 6232, 6232, 6232, 6232, 6232, 6232, 6232, 6232, 6232, 6232, 6232, 6232, 6232, 6232, 6232, 6232, 6232, 6232, 6232, 6232, 6232, 6232, 6232, 6232, 6232, 6232, 6232, 6232, 6232, 6232, 6232, 6232, 6232, 6232, 6232, 6232, 6232, 6232, 6232, 6232, 6232, 6232, 6232, 6232, 6232, 6232, 6232, 6232, 6232, 6232, 6232, 6232, 6232, 6232, 6232, 6232, 6232, 6232, 6232, 6232, 6232, 6232, 6232, 6232, 6232, 6232, 6232, 6232, 6232, 6232, 6232, 6232, 6232, 6232, 6232, 6232, 6232, 6232, 6232, 6232, 6232, 6232, 6232, 6232, 6232, 6232, 6232, 6232, 6232, 6232, 6232, 6232, 6232, 6232, 6232, 6232, 6232, 6232, 6232, 6232, 852, 853, 854, 853, 853, 855, 6232, 6232, 6232, 6232, 6232, 6232, 6232, 6232, 6232, 6232, 6232, 6232, 6232, 6232, 6232, 6232, 6232, 6232, 6232, 6232, 6232, 6232, 6232, 6232, 6232, 6232, 6232, 6232, 6232, 6232, 6232, 6232, 6232, 6232, 6232, 6232, 6232, 6232, 6232, 6232, 6232, 6232, 6232, 6232, 6232, 6232, 6232, 6232, 6232, 6232, 6232, 6232, 6232, 6232, 6232, 6232, 6232, 6232, 6232, 6232, 6232, 6232, 6232, 6232, 6232, 6232, 6232, 6232, 6232, 6232, 6232, 6232, 6232, 6232, 6232, 6232, 6232, 6232, 6232, 6232, 6232, 6232, 6232, 6232, 6232, 6232, 6232, 6232, 6232, 6232, 6232, 6232, 6232, 6232, 6232, 6232, 6232, 6232, 6232, 6232, 6232, 6232, 6232, 6232, 6232, 6232, 6232, 6232, 6232, 6232, 6232, 6232, 6232, 6232, 6232, 6232, 6232, 6232, 6232, 6232, 6232, 6232, 6232, 6232, 6232, 6232, 6232, 6232, 6232, 6232, 6232, 6232, 6232, 6232, 6232, 6232, 6232, 6232, 6232, 6232, 6232, 6232, 6232, 6232, 6232, 6232, 6232, 6232, 6232, 6232, 6232, 6232, 6232, 6232, 6232, 6232, 6232, 6232, 6232, 6232, 6232, 6232, 6232, 6232, 6232, 6232, 6232, 6232, 6232, 6232, 6232, 6232, 6232, 6232, 6232, 6232, 6232, 6232, 6232, 6232, 6232, 6232, 6232, 6232, 6232, 6232, 6232, 6232, 6232, 6232, 6232, 6232, 6232, 6232, 942, 944, 944, 944, 944, 945, 6232, 6232, 6232, 6232, 6232, 6232, 6232, 6232, 6232, 6232, 6232, 6232, 6232, 6232, 6232, 6232, 6232, 6232, 6232, 6232, 6232, 6232, 6232, 6232, 6232, 6232, 6232, 6232, 6232, 6232, 6232, 6232, 6232, 6232, 6232, 6232, 6232, 6232, 6232, 6232, 6232, 6232, 6232, 6232, 6232, 6232, 6232, 6232, 6232, 6232, 6232, 6232, 6232, 6232, 6232, 6232, 6232, 6232, 6232, 6232, 6232, 6232, 6232, 6232, 6232, 6232, 6232, 6232, 6232, 6232, 6232, 6232, 6232, 6232, 6232, 6232, 6232, 6232, 6232, 6232, 6232, 6232, 6232, 6232, 6232, 6232, 6232, 6232, 6232, 6232, 6232, 6232, 6232, 6232, 6232, 6232, 6232, 6232, 6232, 6232, 6232, 6232, 6232, 6232, 6232, 6232, 6232, 6232, 6232, 6232, 6232, 6232, 6232, 6232, 6232, 6232, 6232, 6232, 6232, 6232, 6232, 6232, 6232, 6232, 6232, 6232, 6232, 6232, 6232, 6232, 6232, 6232, 6232, 6232, 6232, 6232, 6232, 6232, 6232, 6232, 6232, 6232, 6232, 6232, 6232, 6232, 6232, 6232, 6232, 6232, 6232, 6232, 6232, 6232, 6232, 6232, 6232, 6232, 6232, 6232, 6232, 6232, 6232, 6232, 6232, 6232, 6232, 6232, 6232, 6232, 6232, 6232, 6232, 6232, 6232, 6232, 6232, 6232, 6232, 6232, 6232, 6232, 6232, 6232, 6232, 6232, 6232, 6232, 6232, 6232, 6232, 6232, 6232, 6232, 942, 944, 944, 944, 944, 945, 6232, 6232, 6232, 6232, 6232, 6232, 6232, 6232, 6232, 6232, 6232, 6232, 6232, 6232, 6232, 6232, 6232, 6232, 6232, 6232, 6232, 6232, 6232, 6232, 6232, 6232, 6232, 6232, 6232, 6232, 6232, 6232, 6232, 6232, 6232, 6232, 6232, 6232, 6232, 6232, 6232, 6232, 6232, 6232, 6232, 6232, 6232, 6232, 6232, 6232, 6232, 6232, 6232, 6232, 6232, 6232, 6232, 6232, 6232, 6232, 6232, 6232, 6232, 6232, 6232, 6232, 6232, 6232, 6232, 6232, 6232, 6232, 6232, 6232, 6232, 6232, 6232, 6232, 6232, 6232, 6232, 6232, 6232, 6232, 6232, 6232, 6232, 6232, 6232, 6232, 6232, 6232, 6232, 6232, 6232, 6232, 6232, 6232, 6232, 6232, 6232, 6232, 6232, 6232, 6232, 6232, 6232, 6232, 6232, 6232, 6232, 6232, 6232, 6232, 6232, 6232, 6232, 6232, 6232, 6232, 6232, 6232, 6232, 6232, 6232, 6232, 6232, 6232, 6232, 6232, 6232, 6232, 6232, 6232, 6232, 6232, 6232, 6232, 6232, 6232, 6232, 6232, 6232, 6232, 6232, 6232, 6232, 6232, 6232, 6232, 6232, 6232, 6232, 6232, 6232, 6232, 6232, 6232, 6232, 6232, 6232, 6232, 6232, 6232, 6232, 6232, 6232, 6232, 6232, 6232, 6232, 6232, 6232, 6232, 6232, 6232, 6232, 6232, 6232, 6232, 6232, 6232, 6232, 6232, 6232, 6232, 6232, 6232, 6232, 6232, 6232, 6232, 6232, 6232, 942, 944, 944, 944, 944, 945, 6232, 6232, 6232, 6232, 6232, 6232, 6232, 6232, 6232, 6232, 6232, 6232, 6232, 6232, 6232, 6232, 6232, 6232, 6232, 6232, 6232, 6232, 6232, 6232, 6232, 6232, 6232, 6232, 6232, 6232, 6232, 6232, 6232, 6232, 6232, 6232, 6232, 6232, 6232, 6232, 6232, 6232, 6232, 6232, 6232, 6232, 6232, 6232, 6232, 6232, 6232, 6232, 6232, 6232, 6232, 6232, 6232, 6232, 6232, 6232, 6232, 6232, 6232, 6232, 6232, 6232, 6232, 6232, 6232, 6232, 6232, 6232, 6232, 6232, 6232, 6232, 6232, 6232, 6232, 6232, 6232, 6232, 6232, 6232, 6232, 6232, 6232, 6232, 6232, 6232, 6232, 6232, 6232, 6232, 6232, 6232, 6232, 6232, 6232, 6232, 6232, 6232, 6232, 6232, 6232, 6232, 6232, 6232, 6232, 6232, 6232, 6232, 6232, 6232, 6232, 6232, 6232, 6232, 6232, 6232, 6232, 6232, 6232, 6232, 6232, 6232, 6232, 6232, 6232, 6232, 6232, 6232, 6232, 6232, 6232, 6232, 6232, 6232, 6232, 6232, 6232, 6232, 6232, 6232, 6232, 6232, 6232, 6232, 6232, 6232, 6232, 6232, 6232, 6232, 6232, 6232, 6232, 6232, 6232, 6232, 6232, 6232, 6232, 6232, 6232, 6232, 6232, 6232, 6232, 6232, 6232, 6232, 6232, 6232, 6232, 6232, 6232, 6232, 6232, 6232, 6232, 6232, 6232, 6232, 6232, 6232, 6232, 6232, 6232, 6232, 6232, 6232, 6232, 6232, 942, 944, 944, 944, 944, 945, 6232, 6232, 6232, 6232, 6232, 6232, 6232, 6232, 6232, 6232, 6232, 6232, 6232, 6232, 6232, 6232, 6232, 6232, 6232, 6232, 6232, 6232, 6232, 6232, 6232, 6232, 6232, 6232, 6232, 6232, 6232, 6232, 6232, 6232, 6232, 6232, 6232, 6232, 6232, 6232, 6232, 6232, 6232, 6232, 6232, 6232, 6232, 6232, 6232, 6232, 6232, 6232, 6232, 6232, 6232, 6232, 6232, 6232, 6232, 6232, 6232, 6232, 6232, 6232, 6232, 6232, 6232, 6232, 6232, 6232, 6232, 6232, 6232, 6232, 6232, 6232, 6232, 6232, 6232, 6232, 6232, 6232, 6232, 6232, 6232, 6232, 6232, 6232, 6232, 6232, 6232, 6232, 6232, 6232, 6232, 6232, 6232, 6232, 6232, 6232, 6232, 6232, 6232, 6232, 6232, 6232, 6232, 6232, 6232, 6232, 6232, 6232, 6232, 6232, 6232, 6232, 6232, 6232, 6232, 6232, 6232, 6232, 6232, 6232, 6232, 6232, 6232, 6232, 6232, 6232, 6232, 6232, 6232, 6232, 6232, 6232, 6232, 6232, 6232, 6232, 6232, 6232, 6232, 6232, 6232, 6232, 6232, 6232, 6232, 6232, 6232, 6232, 6232, 6232, 6232, 6232, 6232, 6232, 6232, 6232, 6232, 6232, 6232, 6232, 6232, 6232, 6232, 6232, 6232, 6232, 6232, 6232, 6232, 6232, 6232, 6232, 6232, 6232, 6232, 6232, 6232, 6232, 6232, 6232, 6232, 6232, 6232, 6232, 6232, 6232, 6232, 6232, 6232, 6232, 942, 944, 944, 944, 944, 945, 6232, 6232, 6232, 6232, 6232, 6232, 6232, 6232, 6232, 6232, 6232, 6232, 6232, 6232, 6232, 6232, 6232, 6232, 6232, 6232, 6232, 6232, 6232, 6232, 6232, 6232, 6232, 6232, 6232, 6232, 6232, 6232, 6232, 6232, 6232, 6232, 6232, 6232, 6232, 6232, 6232, 6232, 6232, 6232, 6232, 6232, 6232, 6232, 6232, 6232, 6232, 6232, 6232, 6232, 6232, 6232, 6232, 6232, 6232, 6232, 6232, 6232, 6232, 6232, 6232, 6232, 6232, 6232, 6232, 6232, 6232, 6232, 6232, 6232, 6232, 6232, 6232, 6232, 6232, 6232, 6232, 6232, 6232, 6232, 6232, 6232, 6232, 6232, 6232, 6232, 6232, 6232, 6232, 6232, 6232, 6232, 6232, 6232, 6232, 6232, 6232, 6232, 6232, 6232, 6232, 6232, 6232, 6232, 6232, 6232, 6232, 6232, 6232, 6232, 6232, 6232, 6232, 6232, 6232, 6232, 6232, 6232, 6232, 6232, 6232, 6232, 6232, 6232, 6232, 6232, 6232, 6232, 6232, 6232, 6232, 6232, 6232, 6232, 6232, 6232, 6232, 6232, 6232, 6232, 6232, 6232, 6232, 6232, 6232, 6232, 6232, 6232, 6232, 6232, 6232, 6232, 6232, 6232, 6232, 6232, 6232, 6232, 6232, 6232, 6232, 6232, 6232, 6232, 6232, 6232, 6232, 6232, 6232, 6232, 6232, 6232, 6232, 6232, 6232, 6232, 6232, 6232, 6232, 6232, 6232, 6232, 6232, 6232, 6232, 6232, 6232, 6232, 6232, 6232, 942, 944, 944, 944, 944, 945, 6232, 6232, 6232, 6232, 6232, 6232, 6232, 6232, 6232, 6232, 6232, 6232, 6232, 6232, 6232, 6232, 6232, 6232, 6232, 6232, 6232, 6232, 6232, 6232, 6232, 6232, 6232, 6232, 6232, 6232, 6232, 6232, 6232, 6232, 6232, 6232, 6232, 6232, 6232, 6232, 6232, 6232, 6232, 6232, 6232, 6232, 6232, 6232, 6232, 6232, 6232, 6232, 6232, 6232, 6232, 6232, 6232, 6232, 6232, 6232, 6232, 6232, 6232, 6232, 6232, 6232, 6232, 6232, 6232, 6232, 6232, 6232, 6232, 6232, 6232, 6232, 6232, 6232, 6232, 6232, 6232, 6232, 6232, 6232, 6232, 6232, 6232, 6232, 6232, 6232, 6232, 6232, 6232, 6232, 6232, 6232, 6232, 6232, 6232, 6232, 6232, 6232, 6232, 6232, 6232, 6232, 6232, 6232, 6232, 6232, 6232, 6232, 6232, 6232, 6232, 6232, 6232, 6232, 6232, 6232, 6232, 6232, 6232, 6232, 6232, 6232, 6232, 6232, 6232, 6232, 6232, 6232, 6232, 6232, 6232, 6232, 6232, 6232, 6232, 6232, 6232, 6232, 6232, 6232, 6232, 6232, 6232, 6232, 6232, 6232, 6232, 6232, 6232, 6232, 6232, 6232, 6232, 6232, 6232, 6232, 6232, 6232, 6232, 6232, 6232, 6232, 6232, 6232, 6232, 6232, 6232, 6232, 6232, 6232, 6232, 6232, 6232, 6232, 6232, 6232, 6232, 6232, 6232, 6232, 6232, 6232, 6232, 6232, 6232, 6232, 6232, 6232, 6232, 6232, 942, 944, 944, 944, 944, 945, 6232, 6232, 6232, 6232, 6232, 6232, 6232, 6232, 6232, 6232, 6232, 6232, 6232, 6232, 6232, 6232, 6232, 6232, 6232, 6232, 6232, 6232, 6232, 6232, 6232, 6232, 6232, 6232, 6232, 6232, 6232, 6232, 6232, 6232, 6232, 6232, 6232, 6232, 6232, 6232, 6232, 6232, 6232, 6232, 6232, 6232, 6232, 6232, 6232, 6232, 6232, 6232, 6232, 6232, 6232, 6232, 6232, 6232, 6232, 6232, 6232, 6232, 6232, 6232, 6232, 6232, 6232, 6232, 6232, 6232, 6232, 6232, 6232, 6232, 6232, 6232, 6232, 6232, 6232, 6232, 6232, 6232, 6232, 6232, 6232, 6232, 6232, 6232, 6232, 6232, 6232, 6232, 6232, 6232, 6232, 6232, 6232, 6232, 6232, 6232, 6232, 6232, 6232, 6232, 6232, 6232, 6232, 6232, 6232, 6232, 6232, 6232, 6232, 6232, 6232, 6232, 6232, 6232, 6232, 6232, 6232, 6232, 6232, 6232, 6232, 6232, 6232, 6232, 6232, 6232, 6232, 6232, 6232, 6232, 6232, 6232, 6232, 6232, 6232, 6232, 6232, 6232, 6232, 6232, 6232, 6232, 6232, 6232, 6232, 6232, 6232, 6232, 6232, 6232, 6232, 6232, 6232, 6232, 6232, 6232, 6232, 6232, 6232, 6232, 6232, 6232, 6232, 6232, 6232, 6232, 6232, 6232, 6232, 6232, 6232, 6232, 6232, 6232, 6232, 6232, 6232, 6232, 6232, 6232, 6232, 6232, 6232, 6232, 6232, 6232, 6232, 6232, 6232, 6232, 942, 944, 944, 944, 944, 945, 6232, 6232, 6232, 6232, 6232, 6232, 6232, 6232, 6232, 6232, 6232, 6232, 6232, 6232, 6232, 6232, 6232, 6232, 6232, 6232, 6232, 6232, 6232, 6232, 6232, 6232, 6232, 6232, 6232, 6232, 6232, 6232, 6232, 6232, 6232, 6232, 6232, 6232, 6232, 6232, 6232, 6232, 6232, 6232, 6232, 6232, 6232, 6232, 6232, 6232, 6232, 6232, 6232, 6232, 6232, 6232, 6232, 6232, 6232, 6232, 6232, 6232, 6232, 6232, 6232, 6232, 6232, 6232, 6232, 6232, 6232, 6232, 6232, 6232, 6232, 6232, 6232, 6232, 6232, 6232, 6232, 6232, 6232, 6232, 6232, 6232, 6232, 6232, 6232, 6232, 6232, 6232, 6232, 6232, 6232, 6232, 6232, 6232, 6232, 6232, 6232, 6232, 6232, 6232, 6232, 6232, 6232, 6232, 6232, 6232, 6232, 6232, 6232, 6232, 6232, 6232, 6232, 6232, 6232, 6232, 6232, 6232, 6232, 6232, 6232, 6232, 6232, 6232, 6232, 6232, 6232, 6232, 6232, 6232, 6232, 6232, 6232, 6232, 6232, 6232, 6232, 6232, 6232, 6232, 6232, 6232, 6232, 6232, 6232, 6232, 6232, 6232, 6232, 6232, 6232, 6232, 6232, 6232, 6232, 6232, 6232, 6232, 6232, 6232, 6232, 6232, 6232, 6232, 6232, 6232, 6232, 6232, 6232, 6232, 6232, 6232],
         "height":25,
         "name":"bg",
         "opacity":1,
         "type":"tilelayer",
         "visible":false,
         "width":200,
         "x":0,
         "y":0
        }, 
        {
         "data":[0, 0, 0, 0, 0, 0, 0, 0, 0, 0, 0, 0, 0, 0, 0, 0, 0, 0, 0, 0, 0, 0, 0, 0, 0, 0, 0, 0, 0, 0, 0, 0, 0, 0, 0, 0, 0, 0, 0, 0, 0, 0, 0, 0, 0, 0, 0, 0, 0, 0, 0, 0, 0, 0, 0, 0, 0, 0, 0, 0, 0, 0, 0, 0, 0, 0, 0, 0, 0, 0, 0, 0, 0, 0, 0, 0, 0, 0, 0, 0, 0, 0, 0, 0, 0, 0, 0, 0, 0, 0, 0, 0, 0, 0, 0, 0, 0, 0, 0, 0, 0, 0, 0, 0, 0, 0, 0, 0, 0, 0, 0, 0, 0, 0, 0, 0, 0, 0, 0, 0, 0, 0, 0, 0, 0, 0, 0, 0, 0, 0, 0, 0, 0, 0, 0, 0, 0, 0, 0, 0, 0, 0, 0, 0, 0, 0, 0, 0, 0, 0, 0, 0, 0, 0, 0, 0, 0, 0, 0, 0, 0, 0, 0, 0, 0, 0, 0, 0, 0, 0, 0, 0, 0, 0, 0, 0, 0, 0, 0, 0, 0, 0, 0, 0, 0, 0, 0, 0, 0, 0, 0, 0, 0, 0, 0, 0, 0, 0, 0, 0, 0, 0, 0, 0, 0, 0, 0, 0, 0, 0, 0, 0, 0, 0, 0, 0, 0, 0, 0, 0, 0, 0, 0, 0, 0, 0, 0, 0, 0, 0, 0, 0, 0, 0, 0, 0, 0, 0, 0, 0, 0, 0, 0, 0, 0, 0, 0, 0, 0, 0, 0, 0, 0, 0, 0, 0, 0, 0, 0, 0, 0, 0, 0, 0, 0, 0, 0, 0, 0, 0, 0, 0, 0, 0, 0, 0, 0, 0, 0, 0, 0, 0, 0, 0, 0, 0, 0, 0, 0, 0, 0, 0, 0, 0, 0, 0, 0, 0, 0, 0, 0, 0, 0, 0, 0, 0, 0, 0, 0, 0, 0, 0, 0, 0, 0, 0, 0, 0, 0, 0, 0, 0, 0, 0, 0, 0, 0, 0, 0, 0, 0, 0, 0, 0, 0, 0, 0, 0, 0, 0, 0, 0, 0, 0, 0, 0, 0, 0, 0, 0, 0, 0, 0, 0, 0, 0, 0, 0, 0, 0, 0, 0, 0, 0, 0, 0, 0, 0, 0, 0, 0, 0, 0, 0, 0, 0, 0, 0, 0, 0, 0, 0, 0, 0, 0, 0, 0, 0, 0, 0, 0, 0, 0, 0, 0, 0, 0, 0, 0, 0, 0, 0, 0, 0, 0, 0, 0, 0, 0, 0, 0, 0, 0, 0, 0, 0, 0, 0, 0, 0, 0, 0, 0, 0, 0, 0, 0, 0, 0, 0, 0, 0, 0, 0, 0, 0, 0, 0, 0, 0, 0, 0, 0, 0, 0, 0, 0, 0, 0, 0, 0, 0, 0, 0, 0, 0, 0, 0, 0, 0, 0, 0, 0, 0, 0, 0, 0, 0, 0, 0, 0, 0, 0, 0, 0, 0, 0, 0, 0, 0, 0, 0, 0, 0, 0, 0, 0, 0, 0, 0, 0, 0, 0, 0, 0, 0, 0, 0, 0, 0, 0, 0, 0, 0, 0, 0, 0, 0, 0, 0, 0, 0, 0, 0, 0, 0, 0, 0, 0, 0, 0, 0, 0, 0, 0, 0, 0, 0, 0, 0, 0, 0, 0, 0, 0, 0, 0, 0, 0, 0, 0, 0, 0, 0, 0, 0, 0, 0, 0, 0, 0, 0, 0, 0, 0, 0, 0, 0, 0, 0, 0, 0, 0, 0, 0, 0, 0, 0, 0, 0, 0, 0, 0, 0, 0, 0, 0, 0, 0, 0, 0, 0, 0, 0, 0, 0, 0, 0, 0, 0, 0, 0, 0, 0, 0, 0, 0, 0, 0, 0, 0, 0, 0, 0, 0, 0, 0, 0, 0, 0, 0, 0, 0, 0, 0, 0, 0, 0, 0, 0, 0, 0, 0, 0, 0, 0, 0, 0, 0, 0, 0, 0, 0, 0, 0, 0, 0, 0, 0, 0, 0, 0, 0, 0, 0, 0, 0, 0, 0, 0, 0, 0, 0, 0, 0, 0, 0, 0, 0, 0, 0, 0, 0, 0, 0, 0, 0, 0, 0, 0, 0, 0, 0, 0, 0, 0, 0, 0, 0, 0, 0, 0, 0, 0, 0, 0, 0, 0, 0, 0, 0, 0, 0, 0, 0, 0, 0, 0, 0, 0, 0, 0, 0, 0, 0, 0, 0, 0, 0, 0, 0, 0, 0, 0, 0, 0, 0, 0, 0, 0, 0, 0, 0, 0, 0, 0, 0, 0, 0, 0, 0, 0, 0, 0, 0, 0, 0, 0, 0, 0, 0, 0, 0, 0, 0, 0, 0, 0, 0, 0, 0, 0, 0, 0, 0, 0, 0, 0, 0, 0, 0, 0, 0, 0, 0, 0, 0, 0, 0, 0, 0, 0, 0, 0, 0, 0, 0, 0, 0, 0, 0, 0, 0, 0, 0, 0, 0, 0, 0, 0, 0, 0, 0, 0, 0, 0, 0, 0, 0, 0, 0, 0, 0, 0, 0, 0, 0, 0, 0, 0, 0, 0, 0, 0, 0, 0, 0, 0, 0, 0, 0, 0, 0, 0, 0, 0, 0, 0, 0, 0, 0, 0, 0, 0, 0, 0, 0, 0, 0, 0, 0, 0, 0, 0, 0, 0, 0, 0, 0, 0, 0, 0, 0, 0, 0, 0, 0, 0, 0, 0, 0, 0, 0, 0, 0, 0, 0, 0, 0, 0, 0, 0, 0, 0, 0, 0, 0, 0, 0, 0, 0, 0, 0, 0, 0, 0, 0, 0, 0, 0, 0, 0, 0, 0, 0, 0, 0, 0, 0, 0, 0, 0, 0, 0, 0, 0, 0, 0, 0, 0, 0, 0, 0, 0, 0, 0, 0, 0, 0, 0, 0, 0, 0, 0, 0, 0, 0, 0, 0, 0, 0, 0, 0, 0, 0, 0, 0, 0, 0, 0, 0, 0, 0, 0, 0, 0, 0, 0, 0, 0, 0, 0, 0, 0, 0, 0, 0, 0, 0, 0, 0, 0, 0, 0, 0, 0, 0, 0, 0, 0, 0, 0, 0, 0, 0, 0, 0, 0, 0, 0, 0, 0, 0, 0, 0, 0, 0, 0, 0, 0, 0, 0, 0, 0, 0, 0, 0, 0, 0, 0, 0, 0, 0, 0, 0, 0, 0, 0, 0, 0, 0, 0, 0, 0, 0, 0, 0, 0, 0, 0, 0, 0, 0, 0, 0, 0, 0, 0, 0, 0, 0, 0, 0, 0, 0, 0, 0, 0, 0, 0, 0, 0, 0, 0, 0, 0, 0, 0, 0, 0, 0, 0, 0, 0, 0, 0, 0, 0, 0, 0, 0, 0, 0, 0, 0, 0, 0, 0, 0, 0, 0, 0, 0, 0, 0, 0, 0, 0, 0, 0, 0, 0, 0, 0, 0, 0, 0, 0, 0, 0, 0, 0, 0, 0, 0, 0, 0, 0, 0, 0, 0, 0, 0, 0, 0, 0, 0, 0, 0, 0, 0, 0, 0, 0, 0, 0, 0, 0, 0, 0, 0, 0, 0, 0, 0, 0, 0, 0, 0, 0, 0, 0, 0, 0, 0, 0, 0, 0, 0, 0, 0, 0, 0, 0, 0, 0, 0, 0, 0, 0, 0, 0, 0, 0, 0, 0, 0, 0, 0, 0, 0, 0, 0, 0, 0, 0, 0, 0, 0, 0, 0, 0, 0, 0, 0, 0, 0, 0, 0, 0, 0, 0, 0, 0, 0, 0, 0, 0, 0, 0, 0, 0, 0, 0, 0, 0, 0, 0, 0, 0, 0, 0, 0, 0, 0, 0, 0, 0, 0, 0, 0, 0, 0, 0, 0, 0, 0, 0, 0, 0, 0, 0, 0, 0, 0, 0, 0, 0, 0, 0, 0, 0, 0, 0, 0, 0, 0, 0, 0, 0, 0, 0, 0, 0, 0, 0, 0, 0, 0, 0, 0, 0, 0, 0, 0, 0, 0, 0, 0, 0, 0, 0, 0, 0, 0, 0, 0, 0, 0, 0, 0, 0, 0, 0, 0, 0, 0, 0, 0, 0, 0, 0, 0, 0, 0, 0, 0, 0, 0, 0, 0, 0, 0, 0, 0, 0, 0, 0, 0, 0, 0, 0, 0, 0, 0, 0, 0, 0, 0, 0, 0, 0, 0, 0, 0, 0, 0, 0, 0, 0, 0, 0, 0, 0, 0, 0, 0, 0, 0, 0, 0, 0, 0, 0, 0, 0, 0, 0, 0, 0, 0, 0, 0, 0, 0, 0, 0, 0, 0, 0, 0, 0, 0, 0, 0, 0, 0, 0, 0, 0, 0, 0, 0, 0, 0, 0, 0, 0, 0, 0, 0, 0, 0, 0, 0, 0, 0, 0, 0, 0, 0, 0, 0, 0, 0, 0, 0, 0, 0, 0, 0, 0, 0, 0, 0, 0, 0, 0, 0, 0, 0, 0, 0, 0, 0, 0, 0, 0, 0, 0, 0, 0, 0, 0, 0, 0, 0, 0, 0, 0, 0, 0, 0, 0, 0, 0, 0, 0, 0, 0, 0, 0, 0, 0, 0, 0, 0, 0, 0, 0, 0, 0, 0, 0, 0, 0, 0, 0, 0, 0, 0, 0, 0, 0, 0, 0, 0, 0, 0, 0, 0, 0, 0, 0, 0, 0, 0, 0, 0, 0, 0, 0, 0, 0, 0, 0, 0, 0, 0, 0, 0, 0, 0, 0, 0, 0, 0, 0, 0, 0, 0, 0, 0, 0, 0, 0, 0, 0, 0, 0, 0, 0, 0, 0, 0, 0, 0, 0, 0, 0, 0, 0, 0, 0, 0, 0, 0, 0, 0, 0, 0, 0, 0, 0, 0, 0, 0, 0, 0, 0, 0, 0, 0, 0, 0, 0, 0, 0, 0, 0, 0, 0, 0, 0, 0, 0, 0, 0, 0, 0, 0, 0, 0, 0, 0, 0, 0, 0, 0, 0, 0, 0, 0, 0, 0, 0, 0, 0, 0, 0, 0, 0, 0, 0, 0, 0, 0, 0, 0, 0, 0, 0, 0, 0, 0, 0, 0, 0, 0, 0, 0, 0, 0, 0, 0, 0, 0, 0, 0, 0, 0, 0, 0, 0, 0, 0, 0, 0, 0, 0, 0, 0, 0, 0, 0, 0, 0, 0, 0, 0, 0, 0, 0, 0, 0, 0, 0, 0, 0, 0, 0, 0, 0, 0, 0, 0, 0, 0, 0, 0, 0, 0, 0, 0, 0, 0, 0, 0, 0, 0, 0, 0, 0, 0, 0, 0, 0, 0, 0, 0, 0, 0, 0, 0, 0, 0, 0, 0, 0, 0, 0, 0, 0, 0, 0, 0, 0, 0, 0, 0, 0, 0, 0, 0, 0, 0, 0, 0, 0, 0, 0, 0, 0, 0, 0, 0, 0, 0, 0, 0, 0, 0, 0, 0, 0, 0, 0, 0, 0, 0, 0, 0, 0, 0, 0, 0, 0, 0, 0, 0, 0, 0, 0, 0, 0, 0, 0, 0, 0, 0, 0, 0, 0, 0, 0, 0, 0, 0, 0, 0, 0, 0, 0, 0, 0, 0, 0, 0, 0, 0, 0, 0, 0, 0, 0, 0, 0, 0, 0, 0, 0, 0, 0, 0, 0, 0, 0, 0, 0, 0, 0, 0, 0, 0, 0, 0, 0, 0, 0, 0, 0, 0, 0, 0, 0, 0, 0, 0, 0, 0, 0, 0, 0, 0, 0, 0, 0, 0, 0, 0, 0, 0, 0, 0, 0, 0, 0, 0, 0, 0, 0, 0, 0, 0, 0, 0, 0, 0, 0, 0, 0, 0, 0, 0, 0, 0, 0, 0, 0, 0, 0, 0, 0, 0, 0, 0, 0, 0, 0, 0, 0, 0, 0, 0, 0, 0, 0, 0, 0, 0, 0, 0, 0, 0, 0, 0, 0, 0, 0, 0, 0, 0, 0, 0, 0, 0, 0, 0, 0, 0, 0, 0, 0, 0, 0, 0, 0, 0, 0, 0, 0, 0, 0, 0, 0, 0, 0, 0, 0, 0, 0, 0, 0, 0, 0, 0, 0, 0, 0, 0, 0, 0, 0, 0, 0, 0, 0, 0, 0, 0, 0, 0, 0, 0, 0, 0, 0, 0, 0, 0, 0, 0, 0, 0, 0, 0, 0, 0, 0, 0, 0, 0, 0, 0, 0, 0, 0, 0, 0, 0, 0, 0, 0, 0, 0, 0, 0, 0, 0, 0, 0, 0, 0, 0, 0, 0, 0, 0, 0, 0, 0, 0, 0, 0, 0, 0, 0, 0, 0, 0, 0, 0, 0, 0, 0, 0, 0, 0, 0, 0, 0, 0, 0, 0, 0, 0, 0, 0, 0, 0, 0, 0, 0, 0, 0, 0, 0, 0, 0, 0, 0, 0, 0, 0, 0, 0, 0, 0, 0, 0, 0, 0, 0, 0, 0, 0, 0, 0, 0, 0, 0, 0, 0, 0, 0, 0, 0, 0, 0, 0, 0, 0, 0, 0, 0, 0, 0, 0, 0, 0, 0, 0, 0, 0, 0, 0, 0, 0, 0, 0, 0, 0, 0, 0, 0, 0, 0, 0, 0, 0, 0, 0, 0, 0, 0, 0, 0, 0, 0, 0, 0, 0, 0, 0, 0, 0, 0, 0, 0, 0, 0, 0, 0, 0, 0, 0, 0, 0, 0, 0, 0, 0, 0, 0, 0, 0, 0, 0, 0, 0, 0, 0, 0, 0, 0, 0, 0, 0, 0, 0, 0, 0, 0, 0, 0, 0, 0, 0, 0, 0, 0, 0, 0, 0, 0, 0, 0, 0, 0, 0, 0, 0, 0, 0, 0, 0, 0, 0, 0, 0, 0, 0, 0, 0, 0, 0, 0, 0, 0, 0, 0, 0, 0, 0, 0, 0, 0, 0, 0, 0, 0, 0, 0, 0, 0, 0, 0, 0, 0, 0, 0, 0, 0, 0, 0, 0, 0, 0, 0, 0, 0, 0, 0, 0, 0, 0, 0, 0, 0, 0, 0, 0, 0, 0, 0, 0, 0, 0, 0, 0, 0, 0, 0, 0, 0, 0, 0, 0, 0, 0, 0, 0, 0, 0, 0, 0, 0, 0, 0, 0, 0, 0, 0, 0, 0, 0, 0, 0, 0, 0, 0, 0, 0, 0, 0, 0, 0, 0, 0, 0, 0, 0, 0, 0, 0, 0, 0, 0, 0, 0, 0, 0, 0, 0, 0, 0, 0, 0, 0, 0, 0, 0, 0, 0, 0, 0, 0, 0, 0, 0, 0, 0, 0, 0, 0, 0, 0, 0, 0, 0, 0, 0, 0, 0, 0, 0, 0, 0, 0, 0, 0, 0, 0, 0, 0, 0, 0, 0, 0, 0, 0, 0, 0, 0, 0, 0, 0, 0, 0, 0, 0, 0, 0, 0, 0, 0, 0, 0, 0, 0, 0, 0, 0, 0, 0, 0, 0, 0, 0, 0, 0, 0, 0, 0, 0, 0, 0, 0, 0, 0, 0, 0, 0, 0, 0, 0, 0, 0, 0, 0, 0, 0, 0, 0, 0, 0, 0, 0, 0, 0, 0, 0, 0, 0, 0, 0, 0, 0, 0, 0, 0, 0, 0, 0, 0, 0, 0, 0, 0, 0, 0, 0, 0, 0, 0, 0, 0, 0, 0, 0, 0, 0, 0, 0, 0, 0, 0, 0, 0, 0, 0, 0, 0, 0, 0, 0, 0, 0, 0, 0, 0, 0, 0, 0, 0, 0, 0, 0, 0, 0, 0, 0, 0, 0, 0, 0, 0, 0, 0, 0, 0, 0, 0, 0, 0, 0, 0, 0, 0, 0, 0, 0, 0, 0, 0, 0, 0, 0, 0, 0, 0, 0, 0, 0, 0, 0, 0, 0, 0, 0, 0, 0, 0, 0, 0, 0, 0, 0, 0, 0, 0, 0, 0, 0, 0, 0, 0, 0, 0, 0, 0, 0, 0, 0, 0, 0, 0, 0, 0, 0, 0, 0, 0, 0, 0, 0, 0, 0, 0, 0, 0, 0, 0, 0, 0, 0, 0, 0, 0, 0, 0, 0, 0, 0, 0, 0, 0, 0, 0, 0, 0, 0, 0, 0, 0, 0, 0, 0, 0, 0, 0, 0, 0, 0, 0, 0, 0, 0, 0, 0, 0, 0, 0, 0, 0, 0, 0, 0, 0, 0, 0, 0, 0, 0, 0, 0, 0, 0, 0, 0, 0, 0, 0, 0, 0, 0, 0, 0, 0, 0, 0, 0, 0, 0, 0, 0, 0, 0, 0, 0, 0, 0, 0, 0, 0, 0, 0, 0, 0, 0, 0, 0, 0, 0, 0, 0, 0, 0, 0, 0, 0, 0, 0, 0, 0, 0, 0, 0, 0, 0, 0, 0, 0, 0, 0, 0, 0, 0, 0, 0, 0, 0, 0, 0, 0, 0, 0, 0, 0, 0, 0, 0, 0, 0, 0, 0, 0, 0, 0, 0, 0, 0, 0, 0, 0, 0, 0, 0, 0, 0, 0, 0, 0, 0, 0, 0, 0, 0, 0, 0, 0, 0, 0, 0, 0, 0, 0, 0, 0, 0, 0, 0, 0, 0, 0, 0, 0, 0, 0, 0, 0, 0, 0, 0, 0, 0, 0, 0, 0, 0, 0, 0, 0, 0, 0, 0, 0, 0, 0, 0, 0, 0, 0, 0, 0, 0, 0, 0, 0, 0, 0, 0, 0, 0, 0, 0, 0, 0, 0, 0, 0, 0, 0, 0, 0, 0, 0, 0, 0, 0, 0, 0, 0, 0, 0, 0, 0, 0, 0, 0, 0, 0, 0, 0, 0, 0, 0, 0, 0, 0, 0, 0, 0, 0, 0, 0, 0, 0, 0, 0, 0, 0, 0, 0, 0, 0, 0, 0, 0, 0, 0, 0, 0, 0, 0, 0, 0, 0, 0, 0, 0, 0, 0, 0, 0, 0, 0, 0, 0, 0, 0, 0, 0, 0, 0, 0, 0, 0, 0, 0, 0, 0, 0, 0, 0, 0, 0, 0, 0, 0, 0, 0, 0, 0, 0, 0, 0, 0, 0, 0, 0, 0, 0, 0, 0, 0, 0, 0, 0, 0, 0, 0, 0, 0, 0, 0, 0, 0, 0, 0, 0, 0, 0, 0, 0, 0, 0, 0, 0, 0, 0, 0, 0, 0, 0, 0, 0, 0, 0, 0, 0, 0, 0, 0, 0, 0, 0, 0, 0, 0, 0, 0, 0, 0, 0, 0, 0, 0, 0, 0, 0, 0, 0, 0, 0, 0, 0, 0, 0, 0, 0, 0, 0, 0, 0, 0, 0, 0, 0, 0, 0, 0, 0, 0, 0, 0, 0, 0, 0, 0, 0, 0, 0, 0, 0, 0, 0, 0, 0, 0, 0, 0, 0, 0, 0, 0, 0, 0, 0, 0, 0, 0, 0, 0, 0, 0, 0, 0, 0, 0, 0, 0, 0, 0, 0, 0, 0, 0, 0, 0, 0, 0, 0, 0, 0, 0, 0, 0, 0, 0, 0, 0, 0, 0, 0, 0, 0, 0, 0, 0, 0, 0, 0, 0, 0, 0, 0, 0, 0, 0, 0, 0, 0, 0, 0, 0, 0, 0, 0, 0, 0, 0, 0, 0, 0, 0, 0, 0, 0, 0, 0, 0, 0, 0, 0, 0, 0, 0, 0, 0, 0, 0, 0, 0, 0, 0, 0, 0, 0, 0, 0, 0, 0, 0, 0, 0, 0, 0, 0, 0, 0, 0, 0, 0, 0, 0, 0, 0, 0, 0, 0, 0, 0, 0, 0, 0, 0, 0, 0, 0, 0, 0, 0, 0, 0, 0, 0, 0, 0, 0, 0, 0, 0, 0, 0, 0, 0, 0, 0, 0, 0, 0, 0, 0, 0, 0, 0, 0, 0, 0, 0, 0, 0, 0, 0, 0, 0, 0, 0, 0, 0, 0, 0, 0, 0, 0, 0, 0, 0, 0, 0, 0, 0, 0, 0, 0, 0, 0, 0, 0, 0, 0, 0, 0, 0, 0, 0, 0, 0, 0, 0, 0, 0, 0, 0, 0, 0, 0, 0, 0, 0, 0, 0, 0, 0, 0, 0, 0, 0, 0, 0, 0, 0, 0, 0, 0, 0, 0, 0, 0, 0, 0, 0, 0, 0, 0, 0, 0, 0, 0, 0, 0, 0, 0, 0, 0, 0, 0, 0, 0, 0, 0, 0, 0, 0, 0, 0, 0, 0, 0, 0, 0, 0, 0, 0, 0, 0, 0, 0, 0, 0, 0, 0, 0, 0, 0, 0, 0, 0, 0, 0, 0, 0, 0, 0, 0, 0, 0, 0, 0, 0, 0, 0, 0, 0, 0, 0, 0, 0, 0, 0, 0, 0, 0, 0, 0, 0, 0, 0, 0, 0, 0, 0, 0, 0, 0, 0, 0, 0, 0, 0, 0, 0, 0, 0, 0, 0, 0, 0, 0, 0, 0, 0, 0, 0, 0, 0, 0, 0, 0, 0, 0, 0, 0, 0, 0, 0, 0, 0, 0, 0, 0, 0, 0, 0, 0, 0, 0, 0, 0, 0, 0, 0, 0, 0, 0, 0, 0, 0, 0, 0, 0, 0, 0, 0, 0, 0, 0, 0, 0, 0, 0, 0, 0, 0, 0, 0, 0, 0, 0, 0, 0, 0, 0, 0, 0, 0, 0, 0, 0, 0, 0, 0, 0, 0, 0, 0, 0, 0, 0, 0, 0, 0, 0, 0, 0, 0, 0, 0, 0, 0, 0, 0, 0, 0, 0, 0, 0, 0, 0, 0, 0, 0, 0, 0, 0, 0, 0, 0, 0, 0, 0, 0, 0, 0, 0, 0, 0, 0, 0, 0, 0, 0, 0, 0, 0, 0, 0, 0, 0, 0, 0, 0, 0, 0, 0, 0, 0, 0, 0, 0, 0, 0, 0, 0, 0, 0, 0, 0, 0, 0, 0, 0, 0, 0, 0, 0, 0, 0, 0, 0, 0, 0, 0, 0, 0, 0, 0, 0, 0, 0, 0, 0, 0, 0, 0, 0, 0, 0, 0, 0, 0, 0, 0, 0, 0, 0, 0, 0, 0, 0, 0, 0, 0, 0, 0, 0, 0, 0, 0, 0, 0, 0, 0, 0, 0, 0, 0, 0, 0, 0, 0, 0, 0, 0, 0, 0, 0, 0, 0, 0, 0, 0, 0, 0, 0, 0, 0, 0, 0, 0, 0, 0, 0, 0, 0, 0, 0, 0, 0, 0, 0, 0, 0, 0, 0, 0, 0, 0, 0, 0, 0, 0, 0, 0, 0, 0, 0, 0, 0, 0, 0, 0, 0, 0, 0, 0, 0, 0, 0, 0, 0, 0, 0, 0, 0, 0, 0, 0, 0, 0, 0, 0, 0, 0, 0, 0, 0, 0, 0, 0, 0, 0, 0, 0, 0, 0, 0, 0, 0, 0, 0, 0, 0, 0, 0, 0, 0, 0, 0, 0, 0, 0, 0, 0, 0, 0, 0, 0, 0, 0, 0, 0, 0, 0, 0, 0, 0, 0, 0, 0, 0, 0, 0, 0, 0, 0, 0, 0, 0, 0, 0, 0, 0, 0, 0, 0, 0, 0, 0, 0, 0, 0, 0, 0, 0, 0, 0, 0, 0, 0, 0, 0, 0, 0, 0, 0, 0, 0, 0, 0, 0, 0, 0, 0, 0, 0, 0, 0, 0, 0, 0, 0, 0, 0, 0, 0, 0, 0, 0, 0, 0, 0, 0, 0, 0, 0, 0, 0, 0, 0, 0, 0, 0, 0, 0, 0, 0, 0, 0, 0, 0, 0, 0, 0, 0, 0, 0, 0, 0, 0, 0, 0, 0, 0, 0, 0, 0, 0, 0, 0, 0, 0, 0, 0, 0, 0, 0, 0, 0, 0, 0, 0, 0, 0, 0, 0, 0, 0, 0, 0, 0, 0, 0, 0, 0, 0, 0, 0, 0, 0, 0, 0, 0, 0, 0, 0, 0, 0, 0, 0, 0, 0, 0, 0, 0, 0, 0, 0, 0, 0, 0, 0, 0, 0, 0, 0, 0, 0, 0, 0, 0, 0, 0, 0, 0, 0, 0, 0, 0, 0, 0, 0, 0, 0, 0, 0, 0, 0, 0, 0, 0, 0, 0, 0, 0, 0, 0, 0, 0, 0, 0, 0, 0, 0, 0, 0, 0, 0, 0, 0, 0, 0, 0, 0, 0, 0, 0, 0, 0, 0, 0, 0, 0, 0, 0, 0, 0, 0, 0, 0, 0, 0, 0, 0, 0, 0, 0, 0, 0, 0, 0, 0, 0, 0, 0, 0, 0, 0, 0, 0, 0, 0, 0, 0, 0, 0, 0, 0, 0, 0, 0, 0, 0, 0, 0, 0, 0, 0, 0, 0, 0, 0, 0, 0, 0, 0, 0, 0, 0, 0, 0, 0, 0, 0, 0, 0, 0, 0, 0, 0, 0, 0, 0, 0, 0, 0, 0, 0, 0, 0, 0, 0, 0, 0, 0, 0, 0, 0, 0, 0, 0, 0, 0, 0, 0, 0, 0, 0, 0, 0, 0, 0, 0, 0, 0, 0, 0, 0, 0, 0, 0, 0, 0, 0, 0, 0, 0, 0, 0, 0, 0, 0, 0, 0, 0, 0, 0, 0, 0, 0, 0, 0, 0, 0, 0, 0, 0, 0, 0, 0, 0, 0, 0, 0, 0, 0, 0, 0, 0, 0, 0, 0, 0, 0, 0, 0, 0, 0, 0, 0, 0, 0, 0, 0, 0, 0, 0, 0, 0, 0, 0, 0, 0, 0, 0, 0, 0, 0, 0, 0, 0, 0, 0, 0, 0, 0, 0, 0, 0, 0, 0, 0, 0, 0, 0, 0, 0, 0, 0, 0, 0, 0, 0, 0, 0, 0, 0, 0, 0, 0, 0, 0, 0, 0, 0, 0, 0, 0, 0, 0, 0, 0, 0, 0, 0, 0, 0, 0, 0, 0, 0, 0, 0, 0, 0, 0, 0, 0, 0, 0, 0, 0, 0, 0, 0, 0, 0, 0, 0, 0, 0, 0, 0, 0, 0, 0, 0, 0, 0, 0, 0, 0, 0, 0, 0, 0, 0, 0, 0, 0, 0, 0, 0, 0, 0, 0, 0, 0, 0, 0, 0, 0, 0, 0, 0, 0, 0, 0, 0, 0, 0, 0, 0, 0, 0, 0, 0, 0, 0, 0, 0, 0, 0, 0, 0, 0, 0, 0, 0, 0, 0, 0, 0, 0, 0, 0, 0, 0, 0, 0, 0, 0, 0, 0, 0, 0, 0, 0, 0, 0, 0, 0, 0, 0, 0, 0, 0, 0, 0, 0, 0, 0, 0, 0, 0, 0, 0, 0, 0, 0, 0, 0, 0, 0, 0, 0, 0, 0, 0, 0, 0, 0, 0, 0, 0, 0, 0, 0, 0, 0, 0, 0, 0, 0, 0, 0, 0, 0, 0, 0, 0, 0, 0, 0, 0, 0, 0, 0, 0, 0, 0, 0, 0, 0, 0, 0, 0, 0, 0, 0, 0, 0, 0, 0, 0, 0, 0, 0, 0, 0, 0, 0, 0, 0, 0, 0, 0, 0, 0, 0, 0, 0, 0, 0, 0, 0, 0, 0, 0, 0, 0, 0, 0, 0, 0, 0, 0, 0, 0, 0, 0, 0, 0, 0, 0, 0, 0, 0, 0, 0, 0, 0, 0, 0, 0, 0, 0, 0, 0, 0, 0, 0, 0, 0, 0, 0, 0, 0, 0, 0, 0, 0, 0, 0, 0, 0, 0, 0, 0, 0, 0, 0, 0, 0, 0, 0, 0, 0, 0, 0, 0, 0, 0, 0, 0, 0, 0, 0, 0, 0, 0, 0, 0, 0, 0, 0, 0, 0, 0, 0, 0, 0, 0, 0, 0, 0, 0, 0, 0, 0, 0, 0, 0, 0, 0, 0, 0, 0, 0, 0, 0, 0, 0, 0, 0, 0, 0, 0, 0, 0, 0, 0, 0, 0, 0, 0, 0, 0, 0, 0, 0, 0, 0, 0, 0, 0, 0, 0, 0, 0, 0, 0, 0, 0, 0, 0, 0, 0, 0, 0, 0, 0, 0, 0, 0, 0, 0, 0, 0, 0, 0, 0, 0, 0, 0, 0, 0, 0, 0, 0, 0, 0, 0, 0, 0, 0, 0, 0, 0, 0, 0, 0, 0, 0, 0, 0, 0, 0, 0, 0, 0, 0, 0, 0, 0, 0, 0, 0, 0, 0, 0, 0, 0, 0, 0, 0, 0, 0, 0, 0, 0, 0, 0, 0, 0, 0, 0, 0, 0, 0, 0, 0, 0, 0, 0, 0, 0, 0, 0, 0, 0, 0, 0, 0, 0, 0, 0, 0, 0, 0, 0, 0, 0, 0, 0, 0, 0, 0, 0, 0, 0, 0, 0, 0, 0, 0, 0, 0, 0, 0, 0, 0, 0, 0, 0, 0, 0, 0, 0, 0, 0, 0, 0, 0, 0, 0, 0, 0, 0, 0, 0, 0, 0, 0, 0, 0, 0, 0, 0, 0, 0, 0, 0, 0, 0, 0, 0, 0, 0, 0, 0, 0, 0, 0, 0, 0, 0, 0, 0, 0, 0, 0, 0, 0, 0, 0, 0, 0, 0, 0, 0, 0, 0, 0, 0, 0, 0, 0, 0, 0, 0, 0, 0, 0, 0, 0, 0, 0, 0, 0, 0, 0, 0, 0, 0, 0, 0, 0, 0, 0, 0, 0, 0, 0, 0, 0, 0, 0, 0, 0, 0, 0, 0, 0, 0, 0, 0, 0, 0, 0, 0, 0, 0, 0, 0, 0, 0, 0, 0, 0, 0, 0, 0, 0, 0, 0, 0, 0, 0, 0, 0, 0, 0, 0, 0, 0, 0, 0, 0, 0, 0, 0, 0, 0, 0, 0, 0, 0, 0, 0, 0, 0, 0, 0, 0, 0, 0, 0, 0, 0, 0, 0, 0, 0, 0, 0, 0, 0, 0, 0, 0, 0, 0, 0, 0, 0, 0, 0, 0, 0, 0, 0, 0, 0, 0, 0, 0, 0, 0, 0, 0, 0, 0, 0, 0, 0, 0, 0, 0, 0, 0, 0, 0, 0, 0, 0, 0, 0, 0, 0, 0, 0, 0, 0, 0, 0, 0, 0, 0, 0, 0, 0, 0, 0, 0, 0, 0, 0, 0, 0, 0, 0, 0, 0, 0, 0, 0, 0, 0, 0, 0, 0, 0, 0, 0, 0, 0, 0, 0, 0, 0, 0, 0, 0, 0, 0, 0, 0, 0, 0, 0, 0, 0, 0, 0, 0, 0, 0, 0, 0, 0, 0, 0, 0, 0, 0, 0, 0, 0, 0, 0, 0, 0, 0, 0, 0, 0, 0, 0, 0, 0, 0, 0, 0, 0, 0, 0, 0, 0, 0, 0, 0, 0, 0, 0, 0, 0, 0, 0, 0, 0, 0, 0, 0, 0, 0, 0, 0, 0, 0, 0, 0, 0, 0, 0, 0, 0, 0, 0, 0, 0, 0, 0, 0, 0, 0, 0, 0, 0, 0, 0, 0, 0, 0, 0, 0, 0, 0, 0, 0, 0, 0, 0, 0, 0, 0, 0, 0, 0, 0, 0, 0, 0, 0, 0, 0, 0, 0, 0, 0, 0, 0, 0, 0, 0, 0, 0, 0, 0, 0, 0, 0, 0, 0, 0, 0, 0, 0, 0, 0, 0, 0, 0, 0, 0, 0, 0, 0, 0, 0, 0, 0, 0, 0, 0, 0, 0, 0, 0, 0, 0, 0, 0, 0, 0, 0, 0, 0, 0, 0, 0, 0, 0, 0, 0, 0, 0, 0, 0, 0, 0, 0, 0, 0, 0, 0, 0, 0, 0, 0, 0, 0, 0, 0, 0, 0, 0, 0, 0, 0, 0, 0, 0, 0, 0, 0, 0, 0, 0, 0, 0, 0, 0, 0, 0, 0, 0, 0, 0, 0, 0, 0, 0, 0, 0, 0, 0, 0, 0, 0, 0, 0, 0, 0, 0, 0, 0, 0, 0, 0, 0, 0, 0, 0, 0, 0, 0, 0, 0, 0, 0, 0, 0, 0, 0, 0, 0, 0, 0, 0, 0, 0, 0, 0, 0, 0, 0, 0, 0, 0, 0, 0, 0, 0, 0, 0, 0, 0, 0],
         "height":25,
         "name":"layer2",
         "opacity":1,
         "type":"tilelayer",
         "visible":false,
         "width":200,
         "x":0,
         "y":0
        }, 
        {
         "data":[0, 0, 0, 0, 0, 0, 0, 0, 0, 0, 0, 0, 0, 0, 0, 0, 0, 0, 0, 0, 0, 0, 0, 0, 0, 0, 0, 0, 0, 0, 0, 0, 0, 0, 0, 0, 0, 0, 0, 0, 0, 0, 0, 0, 0, 0, 0, 0, 0, 0, 0, 0, 0, 0, 0, 0, 0, 0, 0, 0, 0, 0, 0, 0, 0, 0, 0, 0, 0, 0, 0, 0, 0, 0, 0, 0, 0, 0, 0, 0, 0, 0, 0, 0, 0, 0, 0, 0, 0, 0, 0, 0, 0, 0, 0, 0, 0, 0, 0, 0, 0, 0, 0, 0, 0, 0, 0, 0, 0, 0, 0, 0, 0, 0, 0, 0, 0, 0, 0, 0, 0, 0, 0, 0, 0, 0, 0, 0, 0, 0, 0, 0, 0, 0, 0, 0, 0, 0, 0, 0, 0, 0, 0, 0, 0, 0, 0, 0, 0, 0, 0, 0, 0, 0, 0, 0, 0, 0, 0, 0, 0, 0, 0, 0, 0, 0, 0, 0, 0, 0, 0, 0, 0, 0, 0, 0, 0, 0, 0, 0, 0, 0, 0, 0, 0, 0, 0, 0, 0, 0, 0, 0, 0, 0, 0, 0, 0, 0, 0, 0, 0, 0, 0, 0, 0, 0, 0, 0, 0, 0, 0, 0, 0, 0, 0, 732, 0, 0, 0, 0, 0, 0, 0, 0, 0, 0, 0, 0, 0, 0, 0, 0, 0, 0, 0, 0, 732, 0, 0, 0, 732, 0, 0, 0, 0, 0, 0, 0, 0, 0, 0, 0, 0, 0, 0, 0, 0, 0, 0, 732, 0, 0, 0, 0, 0, 0, 0, 0, 0, 0, 0, 0, 0, 0, 0, 0, 0, 0, 0, 0, 732, 0, 0, 0, 732, 0, 0, 0, 0, 0, 0, 0, 0, 0, 0, 0, 0, 0, 0, 0, 0, 0, 0, 0, 732, 0, 0, 0, 0, 0, 0, 0, 0, 0, 0, 0, 0, 0, 0, 0, 0, 0, 0, 0, 0, 732, 0, 0, 0, 732, 0, 0, 0, 0, 0, 0, 0, 0, 0, 0, 0, 0, 0, 0, 0, 0, 0, 732, 0, 0, 0, 0, 0, 0, 0, 0, 0, 0, 0, 0, 0, 0, 0, 0, 0, 0, 0, 0, 732, 0, 0, 0, 732, 0, 0, 0, 0, 0, 0, 0, 0, 0, 0, 0, 0, 0, 0, 0, 0, 0, 0, 0, 0, 0, 0, 0, 0, 0, 0, 0, 0, 0, 0, 0, 0, 0, 0, 0, 0, 0, 2377, 2378, 2379, 2378, 2378, 2378, 2378, 2379, 2378, 2378, 2379, 2380, 0, 0, 0, 0, 0, 0, 0, 0, 0, 0, 2377, 2378, 2379, 2378, 2378, 2378, 2378, 2379, 2378, 2378, 2379, 2380, 0, 0, 0, 0, 0, 0, 0, 0, 0, 0, 2377, 2378, 2379, 2378, 2378, 2378, 2378, 2379, 2378, 2378, 2379, 2380, 0, 0, 0, 0, 0, 0, 0, 0, 0, 0, 2377, 2378, 2379, 2378, 2378, 2378, 2378, 2379, 2378, 2378, 2379, 2380, 0, 0, 0, 0, 0, 0, 0, 0, 0, 0, 0, 2377, 2378, 2379, 2378, 2378, 2378, 2378, 2379, 2378, 2378, 2379, 2380, 0, 0, 0, 0, 0, 0, 0, 0, 0, 0, 2377, 2378, 2379, 2378, 2378, 2378, 2378, 2379, 2378, 2378, 2379, 2380, 0, 0, 0, 0, 0, 0, 0, 0, 0, 2377, 2378, 2379, 2378, 2378, 2378, 2378, 2379, 2378, 2378, 2379, 2380, 0, 0, 0, 0, 0, 0, 0, 0, 0, 0, 2377, 2378, 2379, 2378, 2378, 2378, 2378, 2379, 2378, 2378, 2379, 2380, 0, 0, 0, 0, 0, 0, 0, 0, 0, 0, 0, 0, 0, 0, 0, 0, 0, 0, 0, 0, 0, 0, 0, 0, 0, 0, 0, 0, 0, 0, 0, 0, 0, 0, 2467, 2469, 2469, 2469, 2469, 2469, 2469, 2469, 2469, 2469, 2469, 2470, 0, 0, 0, 0, 0, 0, 0, 0, 0, 0, 2467, 2469, 2469, 2469, 2469, 2469, 2469, 2469, 2469, 2469, 2469, 2470, 0, 0, 0, 0, 0, 0, 0, 0, 0, 0, 2467, 2469, 2469, 2469, 2469, 2469, 2469, 2469, 2469, 2469, 2469, 2470, 0, 0, 0, 0, 0, 0, 0, 0, 0, 0, 2467, 2469, 2469, 2469, 2469, 2469, 2469, 2469, 2469, 2469, 2469, 2470, 0, 0, 0, 0, 0, 0, 0, 0, 0, 0, 0, 2467, 2469, 2469, 2469, 2469, 2469, 2469, 2469, 2469, 2469, 2469, 2470, 0, 0, 0, 0, 0, 0, 0, 0, 0, 0, 2467, 2469, 2469, 2469, 2469, 2469, 2469, 2469, 2469, 2469, 2469, 2470, 0, 0, 0, 0, 0, 0, 0, 0, 0, 2467, 2469, 2469, 2469, 2469, 2469, 2469, 2469, 2469, 2469, 2469, 2470, 0, 0, 0, 0, 0, 0, 0, 0, 0, 0, 2467, 2469, 2469, 2469, 2469, 2469, 2469, 2469, 2469, 2469, 2469, 2470, 0, 0, 0, 0, 0, 0, 0, 0, 0, 0, 0, 0, 0, 0, 0, 0, 0, 0, 0, 0, 0, 0, 0, 0, 0, 0, 0, 0, 0, 0, 0, 0, 0, 0, 2467, 2469, 2469, 2469, 2469, 2469, 2469, 2469, 2469, 2469, 2469, 2470, 0, 0, 0, 0, 0, 0, 0, 0, 0, 0, 2467, 2469, 2469, 2469, 2469, 2469, 2469, 2469, 2469, 2469, 2469, 2470, 0, 0, 0, 0, 0, 0, 0, 0, 0, 0, 2467, 2469, 2469, 2469, 2469, 2469, 2469, 2469, 2469, 2469, 2469, 2470, 0, 0, 0, 0, 0, 0, 0, 0, 0, 0, 2467, 2469, 2469, 2469, 2469, 2469, 2469, 2469, 2469, 2469, 2469, 2470, 0, 0, 0, 0, 0, 0, 0, 0, 0, 0, 0, 2467, 2469, 2469, 2469, 2469, 2469, 2469, 2469, 2469, 2469, 2469, 2470, 0, 0, 0, 0, 0, 0, 0, 0, 0, 0, 2467, 2469, 2469, 2469, 2469, 2469, 2469, 2469, 2469, 2469, 2469, 2470, 0, 0, 0, 0, 0, 0, 0, 0, 0, 2467, 2469, 2469, 2469, 2469, 2469, 2469, 2469, 2469, 2469, 2469, 2470, 0, 0, 0, 0, 0, 0, 0, 0, 0, 0, 2467, 2469, 2469, 2469, 2469, 2469, 2469, 2469, 2469, 2469, 2469, 2470, 0, 0, 0, 0, 0, 0, 0, 0, 0, 0, 0, 0, 0, 0, 0, 0, 0, 0, 0, 0, 0, 0, 0, 0, 0, 0, 0, 0, 0, 0, 0, 0, 0, 0, 2647, 2648, 2648, 2648, 2648, 2648, 2648, 2648, 2648, 2648, 2648, 2650, 0, 0, 0, 0, 0, 0, 0, 0, 0, 0, 2647, 2648, 2648, 2648, 2648, 2648, 2648, 2469, 2469, 2469, 2469, 2470, 0, 0, 0, 0, 0, 0, 0, 0, 0, 0, 2647, 2648, 2648, 2648, 2648, 2648, 2648, 2648, 2648, 2648, 2648, 2650, 0, 0, 0, 0, 0, 0, 0, 0, 0, 0, 2647, 2648, 2648, 2648, 2648, 2648, 2648, 2469, 2469, 2469, 2469, 2470, 0, 0, 0, 0, 0, 0, 0, 0, 0, 0, 0, 2647, 2648, 2648, 2648, 2648, 2648, 2648, 2648, 2648, 2648, 2648, 2650, 0, 0, 0, 0, 0, 0, 0, 0, 0, 0, 2647, 2648, 2648, 2648, 2648, 2648, 2648, 2469, 2469, 2469, 2469, 2470, 0, 0, 0, 0, 0, 0, 0, 0, 0, 2647, 2648, 2648, 2648, 2648, 2648, 2648, 2648, 2648, 2648, 2648, 2650, 0, 0, 0, 0, 0, 0, 0, 0, 0, 0, 2647, 2648, 2648, 2648, 2648, 2648, 2648, 2469, 2469, 2469, 2469, 2470, 0, 0, 0, 0, 0, 0, 0, 0, 0, 0, 0, 0, 0, 0, 0, 0, 0, 0, 0, 0, 0, 0, 0, 0, 0, 0, 0, 0, 0, 0, 0, 0, 0, 0, 0, 0, 0, 0, 0, 0, 0, 0, 0, 0, 0, 0, 0, 0, 0, 0, 0, 0, 0, 0, 0, 0, 0, 0, 0, 0, 0, 0, 0, 2557, 2469, 2469, 2469, 2470, 0, 0, 0, 0, 0, 0, 0, 0, 0, 0, 0, 0, 0, 0, 0, 0, 0, 0, 0, 0, 0, 0, 0, 0, 0, 0, 0, 0, 0, 0, 0, 0, 0, 0, 0, 0, 0, 0, 0, 2557, 2469, 2469, 2469, 2470, 0, 0, 0, 0, 0, 0, 0, 0, 0, 0, 0, 0, 0, 0, 0, 0, 0, 0, 0, 0, 0, 0, 0, 0, 0, 0, 0, 0, 0, 0, 0, 0, 0, 0, 0, 0, 0, 0, 0, 0, 2557, 2469, 2469, 2469, 2470, 0, 0, 0, 0, 0, 0, 0, 0, 0, 0, 0, 0, 0, 0, 0, 0, 0, 0, 0, 0, 0, 0, 0, 0, 0, 0, 0, 0, 0, 0, 0, 0, 0, 0, 0, 0, 0, 0, 2557, 2469, 2469, 2469, 2470, 0, 0, 0, 0, 0, 0, 0, 0, 0, 0, 0, 0, 0, 0, 0, 0, 0, 0, 0, 0, 0, 0, 0, 0, 0, 0, 0, 0, 0, 0, 0, 0, 0, 0, 0, 0, 0, 0, 0, 0, 0, 0, 0, 0, 0, 0, 0, 0, 0, 0, 0, 0, 0, 0, 0, 0, 0, 0, 0, 0, 0, 0, 0, 2557, 2469, 2469, 2469, 2470, 0, 0, 0, 0, 0, 0, 0, 0, 0, 0, 0, 0, 0, 0, 0, 0, 0, 0, 0, 0, 0, 0, 0, 0, 0, 0, 0, 0, 0, 0, 0, 0, 0, 0, 0, 0, 0, 0, 0, 2557, 2469, 2469, 2469, 2470, 0, 0, 0, 0, 0, 0, 0, 0, 0, 0, 0, 0, 0, 0, 0, 0, 0, 0, 0, 0, 0, 0, 0, 0, 0, 0, 0, 0, 0, 0, 0, 0, 0, 0, 0, 0, 0, 0, 0, 0, 2557, 2469, 2469, 2469, 2470, 0, 0, 0, 0, 0, 0, 0, 0, 0, 0, 0, 0, 0, 0, 0, 0, 0, 0, 0, 0, 0, 0, 0, 0, 0, 0, 0, 0, 0, 0, 0, 0, 0, 0, 0, 0, 0, 0, 2557, 2469, 2469, 2469, 2470, 0, 0, 0, 0, 0, 0, 0, 0, 0, 0, 0, 0, 0, 0, 0, 0, 0, 0, 0, 0, 0, 0, 0, 0, 0, 0, 0, 0, 0, 0, 0, 0, 0, 0, 0, 0, 0, 0, 0, 0, 0, 0, 0, 0, 0, 0, 0, 0, 0, 0, 0, 0, 0, 0, 0, 0, 0, 0, 0, 0, 0, 0, 0, 2557, 2469, 2469, 2469, 2470, 0, 0, 0, 0, 0, 0, 0, 0, 0, 0, 0, 0, 0, 0, 0, 0, 0, 0, 0, 0, 0, 0, 0, 0, 0, 0, 0, 0, 0, 0, 0, 0, 0, 0, 0, 0, 0, 0, 0, 2557, 2469, 2469, 2469, 2470, 0, 0, 0, 0, 0, 0, 0, 0, 0, 0, 0, 0, 0, 0, 0, 0, 0, 0, 0, 0, 0, 0, 0, 0, 0, 0, 0, 0, 0, 0, 0, 0, 0, 0, 0, 0, 0, 0, 0, 0, 2557, 2469, 2469, 2469, 2470, 0, 0, 0, 0, 0, 0, 0, 0, 0, 0, 0, 0, 0, 0, 0, 0, 0, 0, 0, 0, 0, 0, 0, 0, 0, 0, 0, 0, 0, 0, 0, 0, 0, 0, 0, 0, 0, 0, 2557, 2469, 2469, 2469, 2470, 0, 0, 0, 0, 0, 0, 0, 0, 0, 0, 0, 0, 0, 0, 0, 0, 0, 0, 0, 0, 0, 0, 0, 0, 0, 0, 0, 0, 0, 0, 0, 0, 0, 0, 0, 0, 0, 0, 0, 0, 0, 0, 0, 0, 0, 0, 0, 0, 0, 0, 0, 0, 0, 0, 0, 0, 0, 0, 0, 0, 0, 0, 0, 2557, 2469, 2469, 2469, 2470, 0, 0, 0, 0, 0, 0, 0, 0, 0, 0, 0, 0, 0, 0, 0, 0, 0, 0, 0, 0, 0, 0, 0, 0, 0, 0, 0, 0, 0, 0, 0, 0, 0, 0, 0, 0, 0, 0, 0, 2557, 2469, 2469, 2469, 2470, 0, 0, 0, 0, 0, 0, 0, 0, 0, 0, 0, 0, 0, 0, 0, 0, 0, 0, 0, 0, 0, 0, 0, 0, 0, 0, 0, 0, 0, 0, 0, 0, 0, 0, 0, 0, 0, 0, 0, 0, 2557, 2469, 2469, 2469, 2470, 0, 0, 0, 0, 0, 0, 0, 0, 0, 0, 0, 0, 0, 0, 0, 0, 0, 0, 0, 0, 0, 0, 0, 0, 0, 0, 0, 0, 0, 0, 0, 0, 0, 0, 0, 0, 0, 0, 2557, 2469, 2469, 2469, 2470, 0, 0, 0, 0, 0, 0, 0, 0, 0, 0, 0, 0, 0, 0, 0, 0, 0, 0, 0, 0, 0, 0, 0, 0, 0, 0, 0, 0, 0, 0, 0, 0, 0, 0, 0, 0, 0, 0, 0, 0, 0, 0, 0, 0, 0, 0, 0, 0, 0, 0, 0, 0, 0, 0, 0, 0, 0, 0, 0, 0, 0, 0, 0, 2557, 2469, 2469, 2469, 2470, 0, 0, 0, 0, 0, 0, 0, 0, 0, 0, 0, 0, 0, 0, 0, 0, 0, 0, 0, 0, 0, 0, 0, 0, 0, 0, 0, 0, 0, 0, 0, 0, 0, 0, 0, 0, 0, 0, 0, 2557, 2469, 2469, 2469, 2470, 0, 0, 0, 0, 0, 0, 0, 0, 0, 0, 0, 0, 0, 0, 0, 0, 0, 0, 0, 0, 0, 0, 0, 0, 0, 0, 0, 0, 0, 0, 0, 0, 0, 0, 0, 0, 0, 0, 0, 0, 2557, 2469, 2469, 2469, 2470, 0, 0, 0, 0, 0, 0, 0, 0, 0, 0, 0, 0, 0, 0, 0, 0, 0, 0, 0, 0, 0, 0, 0, 0, 0, 0, 0, 0, 0, 0, 0, 0, 0, 0, 0, 0, 0, 0, 2557, 2469, 2469, 2469, 2470, 0, 0, 0, 0, 0, 0, 0, 0, 0, 0, 0, 0, 0, 0, 0, 0, 0, 0, 0, 0, 0, 0, 0, 0, 0, 0, 0, 0, 0, 0, 0, 0, 0, 0, 0, 0, 0, 0, 0, 0, 0, 0, 0, 0, 0, 0, 0, 0, 0, 0, 0, 0, 0, 0, 0, 0, 0, 0, 0, 0, 0, 0, 0, 2557, 2469, 2469, 2469, 2470, 0, 0, 0, 0, 0, 0, 0, 0, 0, 0, 0, 0, 0, 0, 0, 0, 0, 0, 0, 0, 0, 0, 0, 0, 0, 0, 0, 0, 0, 0, 0, 0, 0, 0, 0, 0, 0, 0, 0, 2557, 2469, 2469, 2469, 2470, 0, 0, 0, 0, 0, 0, 0, 0, 0, 0, 0, 0, 0, 0, 0, 0, 0, 0, 0, 0, 0, 0, 0, 0, 0, 0, 0, 0, 0, 0, 0, 0, 0, 0, 0, 0, 0, 0, 0, 0, 2557, 2469, 2469, 2469, 2470, 0, 0, 0, 0, 0, 0, 0, 0, 0, 0, 0, 0, 0, 0, 0, 0, 0, 0, 0, 0, 0, 0, 0, 0, 0, 0, 0, 0, 0, 0, 0, 0, 0, 0, 0, 0, 0, 0, 2557, 2469, 2469, 2469, 2470, 0, 0, 0, 0, 0, 0, 0, 0, 0, 0, 0, 0, 0, 0, 0, 0, 0, 0, 0, 0, 0, 0, 0, 0, 0, 0, 0, 0, 0, 0, 0, 0, 0, 0, 0, 0, 0, 0, 0, 0, 0, 0, 0, 0, 0, 0, 0, 0, 0, 0, 0, 0, 0, 0, 0, 0, 0, 0, 0, 0, 0, 0, 0, 2557, 2469, 2469, 2469, 2470, 0, 0, 0, 0, 0, 0, 0, 0, 0, 0, 0, 0, 0, 0, 0, 0, 0, 0, 0, 0, 0, 0, 0, 0, 0, 0, 0, 0, 0, 0, 0, 0, 0, 0, 0, 0, 0, 0, 0, 2557, 2469, 2469, 2469, 2470, 0, 0, 0, 0, 0, 0, 0, 0, 0, 0, 0, 0, 0, 0, 0, 0, 0, 0, 0, 0, 0, 0, 0, 0, 0, 0, 0, 0, 0, 0, 0, 0, 0, 0, 0, 0, 0, 0, 0, 0, 2557, 2469, 2469, 2469, 2470, 0, 0, 0, 0, 0, 0, 0, 0, 0, 0, 0, 0, 0, 0, 0, 0, 0, 0, 0, 0, 0, 0, 0, 0, 0, 0, 0, 0, 0, 0, 0, 0, 0, 0, 0, 0, 0, 0, 2557, 2469, 2469, 2469, 2470, 0, 0, 0, 0, 0, 0, 0, 0, 0, 0, 0, 0, 0, 0, 0, 0, 0, 0, 0, 0, 0, 0, 0, 0, 0, 0, 0, 0, 0, 0, 0, 0, 0, 0, 0, 0, 0, 0, 0, 0, 0, 0, 0, 0, 0, 0, 0, 0, 0, 0, 0, 0, 0, 0, 0, 0, 0, 0, 0, 0, 0, 0, 0, 2647, 2648, 2648, 2648, 2650, 0, 0, 0, 0, 0, 0, 0, 0, 0, 0, 0, 0, 0, 0, 0, 0, 0, 0, 0, 0, 0, 0, 0, 0, 0, 0, 0, 0, 0, 0, 0, 0, 0, 0, 0, 0, 0, 0, 0, 2647, 2648, 2648, 2648, 2650, 0, 0, 0, 0, 0, 0, 0, 0, 0, 0, 0, 0, 0, 0, 0, 0, 0, 0, 0, 0, 0, 0, 0, 0, 0, 0, 0, 0, 0, 0, 0, 0, 0, 0, 0, 0, 0, 0, 0, 0, 2647, 2648, 2648, 2648, 2650, 0, 0, 0, 0, 0, 0, 0, 0, 0, 0, 0, 0, 0, 0, 0, 0, 0, 0, 0, 0, 0, 0, 0, 0, 0, 0, 0, 0, 0, 0, 0, 0, 0, 0, 0, 0, 0, 0, 2647, 2648, 2648, 2648, 2650, 0, 0, 0, 0, 0, 0, 0, 0, 0, 0, 0, 0, 0, 0, 0, 0, 0, 0, 0, 0, 0, 0, 0, 0, 0, 0, 0, 0, 0, 0, 0, 0, 0, 0, 0, 0, 0, 0, 0, 0, 0, 0, 0, 0, 0, 0, 0, 0, 0, 0, 0, 0, 0, 0, 0, 0, 0, 0, 0, 0, 0, 0, 0, 0, 0, 0, 0, 0, 0, 0, 0, 0, 0, 0, 0, 0, 0, 0, 0, 0, 0, 0, 0, 0, 0, 0, 0, 0, 0, 0, 0, 0, 0, 0, 0, 0, 0, 0, 0, 0, 0, 0, 0, 0, 0, 0, 0, 0, 0, 0, 0, 0, 0, 0, 0, 0, 0, 0, 0, 0, 0, 0, 0, 0, 0, 0, 0, 0, 0, 0, 0, 0, 0, 0, 0, 0, 0, 0, 0, 0, 0, 0, 0, 0, 0, 0, 0, 0, 0, 0, 0, 0, 0, 0, 0, 0, 0, 0, 0, 0, 0, 0, 0, 0, 0, 0, 0, 0, 0, 0, 0, 0, 0, 0, 0, 0, 0, 0, 0, 0, 0, 0, 0, 0, 0, 0, 0, 0, 0, 0, 0, 0, 0, 0, 0, 0, 0, 0, 0, 0, 0, 0, 0, 0, 0, 0, 0, 0, 0, 0, 0, 0, 0, 0, 0, 0, 0, 0, 0, 0, 0, 0, 0, 0, 0, 0, 0, 0, 0, 0, 0, 0, 0, 0, 0, 0, 0, 0, 0, 0, 0, 0, 0, 0, 0, 0, 0, 0, 0, 0, 0, 0, 0, 0, 0, 0, 0, 0, 0, 0, 0, 0, 0, 0, 0, 0, 0, 0, 0, 0, 0, 0, 0, 0, 0, 0, 0, 0, 0, 0, 0, 0, 0, 0, 0, 0, 0, 0, 0, 0, 0, 0, 0, 0, 0, 0, 0, 0, 0, 0, 0, 0, 0, 0, 0, 0, 0, 0, 0, 0, 0, 0, 0, 0, 0, 0, 0, 0, 0, 0, 0, 0, 0, 0, 0, 0, 0, 0, 0, 0, 0, 0, 0, 0, 0, 0, 0, 0, 0, 0, 0, 0, 0, 0, 0, 0, 0, 0, 0, 0, 0, 0, 0, 0, 0, 0, 0, 0, 0, 0, 0, 0, 0, 0, 0, 0, 0, 0, 0, 0, 0, 0, 0, 0, 0, 0, 0, 0, 0, 0, 0, 0, 0, 0, 0, 0, 0, 0, 0, 0, 0, 0, 0, 0, 0, 0, 0, 0, 0, 0, 0, 0, 0, 0, 0, 0, 0, 0, 0, 0, 0, 0, 0, 0, 0, 0, 0, 0, 0, 0, 0, 0, 0, 0, 0, 0, 0, 0, 0, 0, 0, 0, 0, 0, 0, 0, 0, 0, 0, 0, 0, 0, 0, 0, 0, 0, 0, 0, 0, 0, 0, 0, 0, 0, 0, 0, 0, 0, 0, 0, 0, 0, 0, 0, 0, 0, 0, 0, 0, 0, 0, 0, 0, 0, 0, 0, 0, 0, 0, 0, 0, 0, 0, 0, 0, 0, 0, 0, 0, 0, 0, 0, 0, 0, 0, 0, 0, 0, 0, 0, 0, 0, 0, 0, 0, 0, 0, 0, 0, 0, 0, 0, 0, 0, 0, 0, 0, 0, 0, 0, 0, 0, 0, 0, 0, 0, 0, 0, 0, 0, 0, 0, 0, 0, 0, 0, 0, 0, 0, 0, 0, 0, 0, 0, 0, 0, 0, 0, 0, 0, 0, 0, 0, 0, 0, 0, 0, 0, 0, 0, 0, 0, 0, 0, 0, 0, 0, 0, 0, 0, 0, 0, 0, 0, 0, 0, 0, 0, 0, 0, 0, 0, 0, 0, 0, 0, 0, 0, 0, 0, 0, 0, 0, 0, 0, 0, 0, 0, 0, 0, 0, 0, 0, 0, 0, 0, 0, 0, 0, 0, 0, 0, 0, 0, 0, 0, 0, 0, 0, 0, 0, 0, 0, 0, 0, 0, 0, 0, 0, 0, 0, 0, 0, 0, 0, 0, 0, 0, 0, 0, 0, 0, 0, 0, 0, 0, 0, 0, 0, 0, 0, 0, 0, 0, 0, 0, 0, 0, 0, 0, 0, 0, 0, 0, 0, 0, 0, 0, 0, 0, 0, 0, 0, 0, 0, 0, 0, 0, 0, 0, 0, 0, 0, 0, 0, 0, 0, 0, 0, 0, 0, 0, 0, 0, 0, 0, 0, 0, 0, 0, 0, 0, 0, 0, 0, 0, 0, 0, 0, 0, 0, 0, 0, 0, 0, 0, 0, 0, 0, 0, 0, 0, 0, 0, 0, 0, 0, 0, 0, 0, 0, 0, 0, 0, 0, 0, 0, 0, 0, 0, 0, 0, 0, 0, 0, 0, 0, 0, 0, 0, 0, 0, 0, 0, 0, 0, 0, 0, 0, 0, 0, 0, 0, 0, 0, 0, 0, 0, 0, 0, 0, 0, 0, 0, 0, 0, 0, 0, 0, 0, 0, 0, 0, 0, 0, 0, 0, 0, 0, 0, 0, 0, 0, 0, 0, 0, 0, 0, 0, 0, 0, 0, 0, 0, 0, 0, 0, 0, 0, 0, 0, 0, 0, 0, 0, 0, 0, 0, 0, 0, 0, 0, 0, 0, 0, 0, 0, 0, 0, 0, 0, 0, 0, 0, 0, 0, 0, 0, 0, 0, 0, 0, 0, 0, 0, 0, 0, 0, 0, 0, 0, 0, 0, 0, 0, 0, 0, 0, 0, 0, 0, 0, 0, 0, 0, 0, 0, 0, 0, 0, 0, 0, 0, 0, 0, 0, 0, 0, 0, 0, 0, 0, 0, 0, 0, 0, 0, 0, 0, 0, 0, 0, 0, 0, 0, 0, 0, 0, 0, 0, 0, 0, 0, 0, 0, 0, 0, 0, 0, 0, 0, 0, 0, 0, 0, 0, 0, 0, 0, 0, 0, 0, 0, 0, 0, 0, 0, 0, 0, 0, 0, 0, 0, 0, 0, 0, 0, 0, 0, 0, 0, 0, 0, 0, 0, 0, 0, 0, 0, 0, 0, 0, 0, 0, 0, 0, 0, 0, 0, 0, 0, 0, 0, 0, 0, 0, 0, 0, 0, 0, 0, 0, 0, 0, 0, 0, 0, 0, 0, 0, 0, 0, 0, 0, 0, 0, 0, 0, 0, 0, 0, 0, 0, 0, 0, 0, 0, 0, 0, 0, 0, 0, 0, 0, 0, 0, 0, 0, 0, 0, 0, 0, 0, 0, 0, 0, 0, 0, 0, 0, 0, 0, 0, 0, 0, 0, 0, 0, 0, 0, 0, 0, 0, 0, 0, 0, 0, 0, 0, 0, 0, 0, 0, 0, 0, 0, 0, 0, 0, 0, 0, 0, 0, 0, 0, 0, 0, 0, 0, 0, 0, 0, 0, 0, 0, 0, 0, 0, 0, 0, 0, 0, 0, 0, 0, 0, 0, 0, 0, 0, 0, 0, 0, 0, 0, 0, 0, 0, 0, 0, 0, 0, 0, 0, 0, 0, 0, 0, 0, 0, 0, 0, 0, 0, 0, 0, 0, 0, 0, 0, 0, 0, 0, 0, 0, 0, 0, 0, 0, 0, 0, 0, 0, 0, 0, 0, 0, 0, 0, 0, 0, 0, 0, 0, 0, 0, 0, 0, 0, 0, 0, 0, 0, 0, 0, 0, 0, 0, 0, 0, 0, 0, 0, 0, 0, 0, 0, 0, 0, 0, 0, 0, 0, 0, 0, 0, 0, 0, 0, 0, 0, 0, 0, 0, 0, 0, 0, 0, 0, 0, 0, 0, 0, 0, 0, 0, 0, 0, 0, 0, 0, 0, 0, 0, 0, 0, 0, 0, 0, 0, 0, 0, 0, 0, 0, 0, 0, 0, 0, 0, 0, 0, 0, 0, 0, 0, 0, 0, 0, 0, 0, 0, 0, 0, 0, 0, 0, 0, 0, 0, 0, 0, 0, 0, 0, 0, 0, 0, 0, 0, 0, 0, 0, 0, 0, 0, 0, 0, 0, 0, 0, 0, 0, 0, 0, 0, 0, 0, 0, 0, 0, 0, 0, 2382, 2383, 2383, 2383, 2385, 0, 0, 0, 0, 0, 0, 0, 0, 0, 0, 0, 0, 0, 0, 0, 0, 0, 0, 0, 0, 0, 0, 0, 0, 0, 0, 0, 0, 0, 0, 0, 0, 0, 0, 0, 0, 0, 0, 0, 2382, 2383, 2383, 2383, 2385, 0, 0, 0, 0, 0, 0, 0, 0, 0, 0, 0, 0, 0, 0, 0, 0, 0, 0, 0, 0, 0, 0, 0, 0, 0, 0, 0, 0, 0, 0, 0, 0, 0, 0, 0, 0, 0, 0, 0, 0, 2382, 2383, 2383, 2383, 2385, 0, 0, 0, 0, 0, 0, 0, 0, 0, 0, 0, 0, 0, 0, 0, 0, 0, 0, 0, 0, 0, 0, 0, 0, 0, 0, 0, 0, 0, 0, 0, 0, 0, 0, 0, 0, 0, 0, 2382, 2383, 2383, 2383, 2385, 162, 163, 163, 163, 163, 163, 163, 163, 163, 163, 163, 163, 163, 163, 163, 163, 163, 163, 163, 163, 163, 163, 163, 164, 0, 0, 0, 0, 0, 0, 0, 0, 0, 0, 0, 0, 0, 0, 0, 0, 0, 0, 0, 0, 0, 0, 0, 0, 0, 0, 0, 0, 0, 0, 0, 0, 0, 0, 0, 0, 0, 0, 0, 2472, 2474, 2474, 2474, 2475, 0, 0, 0, 0, 0, 0, 0, 0, 0, 0, 0, 0, 0, 0, 0, 0, 0, 0, 0, 0, 0, 0, 0, 0, 0, 0, 0, 0, 0, 0, 0, 0, 0, 0, 0, 0, 0, 0, 0, 2472, 2474, 2474, 2474, 2475, 0, 0, 0, 0, 0, 0, 0, 0, 0, 0, 0, 0, 0, 0, 0, 0, 0, 0, 0, 0, 0, 0, 0, 0, 0, 0, 0, 0, 0, 0, 0, 0, 0, 0, 0, 0, 0, 0, 0, 0, 2472, 2474, 2474, 2474, 2475, 0, 0, 0, 0, 0, 0, 0, 0, 0, 0, 0, 0, 0, 0, 0, 0, 0, 0, 0, 0, 0, 0, 0, 0, 0, 0, 0, 0, 0, 0, 0, 0, 0, 0, 0, 0, 0, 0, 2472, 2474, 2474, 2474, 2475, 252, 253, 253, 253, 253, 253, 253, 253, 253, 253, 253, 253, 253, 253, 253, 253, 253, 253, 253, 253, 253, 253, 253, 254, 2387, 2388, 2389, 2388, 2388, 2389, 2390, 0, 0, 0, 0, 0, 0, 0, 0, 0, 0, 0, 0, 0, 0, 0, 0, 0, 0, 0, 0, 0, 0, 0, 0, 0, 0, 0, 0, 0, 0, 0, 0, 2472, 2474, 2474, 2474, 2565, 0, 0, 0, 0, 0, 0, 0, 0, 0, 0, 0, 0, 0, 0, 0, 0, 0, 0, 0, 0, 0, 0, 0, 0, 0, 0, 0, 0, 0, 0, 0, 0, 0, 0, 0, 0, 0, 0, 0, 2472, 2474, 2474, 2474, 2565, 0, 0, 0, 0, 0, 0, 0, 0, 0, 0, 0, 0, 0, 0, 0, 0, 0, 0, 0, 0, 0, 0, 0, 0, 0, 0, 0, 0, 0, 0, 0, 0, 0, 0, 0, 0, 0, 0, 0, 0, 2472, 2474, 2474, 2474, 2565, 0, 0, 0, 0, 0, 0, 0, 0, 0, 0, 0, 0, 0, 0, 0, 0, 0, 0, 0, 0, 0, 0, 0, 0, 0, 0, 0, 0, 0, 0, 0, 0, 0, 0, 0, 0, 0, 0, 2472, 2474, 2474, 2474, 2565, 252, 253, 253, 253, 253, 253, 253, 253, 253, 253, 253, 253, 253, 253, 253, 253, 253, 253, 253, 253, 253, 253, 253, 254, 2477, 2479, 2479, 2479, 2479, 2479, 2480, 0, 0, 0, 0, 0, 0, 0, 0, 0, 0, 0, 0, 0, 0, 0, 0, 0, 0, 0, 0, 0, 0, 0, 0, 0, 0, 0, 0, 0, 0, 0, 0, 2472, 2474, 2474, 2474, 2475, 0, 0, 0, 0, 0, 0, 0, 0, 0, 0, 0, 0, 0, 0, 0, 0, 0, 0, 0, 0, 0, 0, 0, 0, 0, 0, 0, 0, 0, 0, 0, 0, 0, 0, 0, 0, 0, 0, 0, 2472, 2474, 2474, 2474, 2475, 0, 0, 0, 0, 0, 0, 0, 0, 0, 0, 0, 0, 0, 0, 0, 0, 0, 0, 0, 0, 0, 0, 0, 0, 0, 0, 0, 0, 0, 0, 0, 0, 0, 0, 0, 0, 0, 0, 0, 0, 2472, 2474, 2474, 2474, 2475, 0, 0, 0, 0, 0, 0, 0, 0, 0, 0, 0, 0, 0, 0, 0, 0, 0, 0, 0, 0, 0, 0, 0, 0, 0, 0, 0, 0, 0, 0, 0, 0, 0, 0, 0, 0, 0, 0, 2472, 2474, 2474, 2474, 2475, 252, 253, 253, 253, 253, 253, 253, 253, 253, 253, 253, 253, 253, 253, 253, 253, 253, 253, 253, 253, 253, 253, 253, 254, 2477, 2479, 2479, 2479, 2479, 2479, 2480, 0, 0, 0, 0, 0, 0, 0, 0, 0, 0, 0, 0, 0, 0, 0, 0, 0, 0, 0, 0, 0, 0, 0, 0, 0, 0, 0, 0, 0, 0, 0, 0, 2472, 2474, 2474, 2474, 2475, 0, 0, 0, 0, 0, 0, 0, 0, 0, 0, 0, 0, 0, 0, 0, 0, 0, 0, 0, 0, 0, 0, 0, 0, 0, 0, 0, 0, 0, 0, 0, 0, 0, 0, 0, 0, 0, 0, 0, 2472, 2474, 2474, 2474, 2475, 0, 0, 0, 0, 0, 0, 0, 0, 0, 0, 0, 0, 0, 0, 0, 0, 0, 0, 0, 0, 0, 0, 0, 0, 0, 0, 0, 0, 0, 0, 0, 0, 0, 0, 0, 0, 0, 0, 0, 0, 2472, 2474, 2474, 2474, 2475, 0, 0, 0, 0, 0, 0, 0, 0, 0, 0, 0, 0, 0, 0, 0, 0, 0, 0, 0, 0, 0, 0, 0, 0, 0, 0, 0, 0, 0, 0, 0, 0, 0, 0, 0, 0, 0, 0, 2472, 2474, 2474, 2474, 2475, 252, 253, 253, 253, 253, 253, 253, 253, 253, 253, 253, 253, 253, 253, 253, 253, 253, 253, 253, 253, 253, 253, 253, 254],
         "height":25,
         "name":"layer1",
         "opacity":1,
         "type":"tilelayer",
         "visible":true,
         "width":200,
         "x":0,
         "y":0
        }, 
        {
         "draworder":"topdown",
         "height":30,
         "name":"others",
         "objects":[],
         "opacity":1,
         "type":"objectgroup",
         "visible":true,
         "width":150,
         "x":0,
         "y":0
        }],
 "nextobjectid":32,
 "orientation":"orthogonal",
 "properties":
    {
     "water":"true"
    },
 "propertytypes":
    {
     "water":"string"
    },
 "renderorder":"right-down",
 "tileheight":32,
 "tilesets":[
        {
         "columns":90,
         "firstgid":1,
         "image":"images\/nestle2.png",
         "imageheight":2336,
         "imagewidth":2880,
         "margin":0,
         "name":"ground",
         "spacing":0,
         "tilecount":6570,
         "tileheight":32,
         "tilewidth":32
        }, 
        {
         "columns":1,
         "firstgid":6571,
         "image":"sprites\/platforms.png",
         "imageheight":96,
         "imagewidth":96,
         "margin":0,
         "name":"platforms",
         "spacing":0,
         "tilecount":3,
         "tileheight":32,
         "tilewidth":96
        }, 
        {
         "columns":2,
         "firstgid":6574,
         "image":"sprites\/enemies.png",
         "imageheight":70,
         "imagewidth":140,
         "margin":0,
         "name":"enemies",
         "spacing":0,
         "tilecount":2,
         "tileheight":70,
         "tilewidth":70
        }],
 "tilewidth":32,
 "version":1,
 "width":200
}